<?xml version="1.0" encoding="utf-8"?>
<!-- Generator: Adobe Illustrator 22.0.1, SVG Export Plug-In . SVG Version: 6.00 Build 0)  -->
<svg version="1.1" id="Layer_2" xmlns="http://www.w3.org/2000/svg" xmlns:xlink="http://www.w3.org/1999/xlink" x="0px" y="0px"
	 width="576.8px" height="753.8px" viewBox="0 0 576.8 753.8" style="enable-background:new 0 0 576.8 753.8;" xml:space="preserve"
	>
<style type="text/css">
	.st0{fill:#74B0E3;}
	.st1{clip-path:url(#SVGID_2_);fill:#74B0E3;}
	.st2{clip-path:url(#SVGID_2_);fill:#75B1E3;}
	.st3{clip-path:url(#SVGID_2_);fill:#76B2E4;}
	.st4{clip-path:url(#SVGID_2_);fill:#77B2E4;}
	.st5{clip-path:url(#SVGID_2_);fill:#78B3E4;}
	.st6{clip-path:url(#SVGID_2_);fill:#79B3E4;}
	.st7{clip-path:url(#SVGID_2_);fill:#7AB4E5;}
	.st8{clip-path:url(#SVGID_2_);fill:#7BB5E5;}
	.st9{clip-path:url(#SVGID_2_);fill:#7CB5E5;}
	.st10{clip-path:url(#SVGID_2_);fill:#7DB6E6;}
	.st11{clip-path:url(#SVGID_2_);fill:#7EB7E6;}
	.st12{clip-path:url(#SVGID_2_);fill:#7FB7E6;}
	.st13{clip-path:url(#SVGID_2_);fill:#80B8E7;}
	.st14{clip-path:url(#SVGID_2_);fill:#81B9E7;}
	.st15{clip-path:url(#SVGID_2_);fill:#82B9E7;}
	.st16{clip-path:url(#SVGID_2_);fill:#83BAE7;}
	.st17{clip-path:url(#SVGID_2_);fill:#84BBE8;}
	.st18{clip-path:url(#SVGID_2_);fill:#85BBE8;}
	.st19{clip-path:url(#SVGID_2_);fill:#86BCE8;}
	.st20{clip-path:url(#SVGID_2_);fill:#87BDE9;}
	.st21{clip-path:url(#SVGID_2_);fill:#88BDE9;}
	.st22{clip-path:url(#SVGID_2_);fill:#89BEE9;}
	.st23{clip-path:url(#SVGID_2_);fill:#8ABFEA;}
	.st24{clip-path:url(#SVGID_2_);fill:#8BBFEA;}
	.st25{clip-path:url(#SVGID_2_);fill:#8CC0EA;}
	.st26{clip-path:url(#SVGID_2_);fill:#8DC1EA;}
	.st27{clip-path:url(#SVGID_2_);fill:#8EC1EB;}
	.st28{clip-path:url(#SVGID_2_);fill:#8FC2EB;}
	.st29{clip-path:url(#SVGID_2_);fill:#90C3EB;}
	.st30{clip-path:url(#SVGID_2_);fill:#92C3EC;}
	.st31{clip-path:url(#SVGID_2_);fill:#93C4EC;}
	.st32{clip-path:url(#SVGID_2_);fill:#94C5EC;}
	.st33{clip-path:url(#SVGID_2_);fill:#95C5EC;}
	.st34{clip-path:url(#SVGID_2_);fill:#95C6ED;}
	.st35{clip-path:url(#SVGID_2_);fill:#96C7ED;}
	.st36{clip-path:url(#SVGID_2_);fill:#97C7ED;}
	.st37{clip-path:url(#SVGID_2_);fill:#98C8EE;}
	.st38{clip-path:url(#SVGID_2_);fill:#99C9EE;}
	.st39{clip-path:url(#SVGID_2_);fill:#9AC9EE;}
	.st40{clip-path:url(#SVGID_2_);fill:#9BCAEF;}
	.st41{clip-path:url(#SVGID_2_);fill:#9CCBEF;}
	.st42{clip-path:url(#SVGID_2_);fill:#9DCBEF;}
	.st43{clip-path:url(#SVGID_2_);fill:#9ECCEF;}
	.st44{clip-path:url(#SVGID_2_);fill:#9FCDF0;}
	.st45{clip-path:url(#SVGID_2_);fill:#A0CDF0;}
	.st46{clip-path:url(#SVGID_4_);fill:#80B8E7;}
	.st47{clip-path:url(#SVGID_4_);fill:#7FB7E6;}
	.st48{clip-path:url(#SVGID_4_);fill:#7EB7E6;}
	.st49{clip-path:url(#SVGID_4_);fill:#7DB6E6;}
	.st50{clip-path:url(#SVGID_4_);fill:#7CB5E5;}
	.st51{clip-path:url(#SVGID_4_);fill:#7BB5E5;}
	.st52{clip-path:url(#SVGID_4_);fill:#7AB4E5;}
	.st53{clip-path:url(#SVGID_4_);fill:#79B3E4;}
	.st54{clip-path:url(#SVGID_4_);fill:#78B3E4;}
	.st55{clip-path:url(#SVGID_4_);fill:#77B2E4;}
	.st56{clip-path:url(#SVGID_4_);fill:#76B2E4;}
	.st57{clip-path:url(#SVGID_4_);fill:#75B1E3;}
	.st58{clip-path:url(#SVGID_4_);fill:#74B0E3;}
	.st59{clip-path:url(#SVGID_4_);fill:#A0CDF0;}
	.st60{clip-path:url(#SVGID_4_);fill:#9FCDF0;}
	.st61{clip-path:url(#SVGID_4_);fill:#9ECCEF;}
	.st62{clip-path:url(#SVGID_4_);fill:#9DCBEF;}
	.st63{clip-path:url(#SVGID_4_);fill:#9CCBEF;}
	.st64{clip-path:url(#SVGID_4_);fill:#9BCAEF;}
	.st65{clip-path:url(#SVGID_4_);fill:#9AC9EE;}
	.st66{clip-path:url(#SVGID_4_);fill:#99C9EE;}
	.st67{clip-path:url(#SVGID_4_);fill:#98C8EE;}
	.st68{clip-path:url(#SVGID_4_);fill:#97C7ED;}
	.st69{clip-path:url(#SVGID_4_);fill:#96C7ED;}
	.st70{clip-path:url(#SVGID_4_);fill:#95C6ED;}
	.st71{clip-path:url(#SVGID_4_);fill:#95C5EC;}
	.st72{clip-path:url(#SVGID_4_);fill:#94C5EC;}
	.st73{clip-path:url(#SVGID_4_);fill:#93C4EC;}
	.st74{clip-path:url(#SVGID_4_);fill:#92C3EC;}
	.st75{clip-path:url(#SVGID_4_);fill:#90C3EB;}
	.st76{clip-path:url(#SVGID_4_);fill:#8FC2EB;}
	.st77{clip-path:url(#SVGID_4_);fill:#8EC1EB;}
	.st78{clip-path:url(#SVGID_4_);fill:#8DC1EA;}
	.st79{clip-path:url(#SVGID_4_);fill:#8CC0EA;}
	.st80{clip-path:url(#SVGID_4_);fill:#8BBFEA;}
	.st81{clip-path:url(#SVGID_4_);fill:#8ABFEA;}
	.st82{clip-path:url(#SVGID_4_);fill:#89BEE9;}
	.st83{clip-path:url(#SVGID_4_);fill:#88BDE9;}
	.st84{clip-path:url(#SVGID_4_);fill:#87BDE9;}
	.st85{clip-path:url(#SVGID_4_);fill:#86BCE8;}
	.st86{clip-path:url(#SVGID_4_);fill:#85BBE8;}
	.st87{clip-path:url(#SVGID_4_);fill:#84BBE8;}
	.st88{clip-path:url(#SVGID_4_);fill:#83BAE7;}
	.st89{clip-path:url(#SVGID_4_);fill:#82B9E7;}
	.st90{clip-path:url(#SVGID_4_);fill:#81B9E7;}
	.st91{filter:url(#Adobe_OpacityMaskFilter);}
	.st92{filter:url(#Adobe_OpacityMaskFilter_1_);}
	.st93{mask:url(#SVGID_5_);fill:url(#SVGID_6_);}
	.st94{clip-path:url(#SVGID_8_);fill:#211E16;}
	.st95{clip-path:url(#SVGID_8_);fill:#221E17;}
	.st96{clip-path:url(#SVGID_8_);fill:#231F18;}
	.st97{clip-path:url(#SVGID_8_);fill:#232018;}
	.st98{clip-path:url(#SVGID_8_);fill:#242019;}
	.st99{clip-path:url(#SVGID_8_);fill:#25211A;}
	.st100{clip-path:url(#SVGID_8_);fill:#26221B;}
	.st101{clip-path:url(#SVGID_8_);fill:#27231C;}
	.st102{clip-path:url(#SVGID_8_);fill:#28241D;}
	.st103{clip-path:url(#SVGID_8_);fill:#29241E;}
	.st104{clip-path:url(#SVGID_8_);fill:#29251E;}
	.st105{clip-path:url(#SVGID_8_);fill:#2A261F;}
	.st106{clip-path:url(#SVGID_8_);fill:#2B261F;}
	.st107{clip-path:url(#SVGID_8_);fill:#2B2720;}
	.st108{clip-path:url(#SVGID_8_);fill:#2C2821;}
	.st109{clip-path:url(#SVGID_8_);fill:#2D2821;}
	.st110{clip-path:url(#SVGID_8_);fill:#2D2922;}
	.st111{clip-path:url(#SVGID_8_);fill:#2E2923;}
	.st112{clip-path:url(#SVGID_8_);fill:#2F2A23;}
	.st113{clip-path:url(#SVGID_8_);fill:#2F2B24;}
	.st114{clip-path:url(#SVGID_8_);fill:#302B25;}
	.st115{clip-path:url(#SVGID_8_);fill:#312C25;}
	.st116{clip-path:url(#SVGID_8_);fill:#322D26;}
	.st117{clip-path:url(#SVGID_8_);fill:#322D27;}
	.st118{clip-path:url(#SVGID_8_);fill:#332E27;}
	.st119{clip-path:url(#SVGID_8_);fill:#342F28;}
	.st120{clip-path:url(#SVGID_8_);fill:#342F29;}
	.st121{clip-path:url(#SVGID_8_);fill:#353029;}
	.st122{clip-path:url(#SVGID_8_);fill:#36312A;}
	.st123{clip-path:url(#SVGID_8_);fill:#36312B;}
	.st124{clip-path:url(#SVGID_8_);fill:#37322B;}
	.st125{clip-path:url(#SVGID_8_);fill:#38332C;}
	.st126{clip-path:url(#SVGID_8_);fill:#39332D;}
	.st127{clip-path:url(#SVGID_8_);fill:#39342D;}
	.st128{clip-path:url(#SVGID_8_);fill:#3A352E;}
	.st129{clip-path:url(#SVGID_8_);fill:#3B352F;}
	.st130{clip-path:url(#SVGID_8_);fill:#3B362F;}
	.st131{clip-path:url(#SVGID_8_);fill:#3C3730;}
	.st132{clip-path:url(#SVGID_8_);fill:#3D3831;}
	.st133{clip-path:url(#SVGID_8_);fill:#3E3831;}
	.st134{clip-path:url(#SVGID_8_);fill:#3F3932;}
	.st135{clip-path:url(#SVGID_8_);fill:#3F3A33;}
	.st136{clip-path:url(#SVGID_8_);fill:#403B34;}
	.st137{clip-path:url(#SVGID_8_);fill:#413B34;}
	.st138{clip-path:url(#SVGID_8_);fill:#423C35;}
	.st139{clip-path:url(#SVGID_8_);fill:#433D36;}
	.st140{clip-path:url(#SVGID_8_);fill:#433E37;}
	.st141{clip-path:url(#SVGID_8_);fill:#443E37;}
	.st142{clip-path:url(#SVGID_8_);fill:#453F38;}
	.st143{clip-path:url(#SVGID_8_);fill:#464039;}
	.st144{clip-path:url(#SVGID_8_);fill:#46413A;}
	.st145{clip-path:url(#SVGID_8_);fill:#47413B;}
	.st146{clip-path:url(#SVGID_8_);fill:#48423B;}
	.st147{clip-path:url(#SVGID_8_);fill:#49433C;}
	.st148{clip-path:url(#SVGID_8_);fill:#4A443D;}
	.st149{clip-path:url(#SVGID_8_);fill:#4A453E;}
	.st150{clip-path:url(#SVGID_8_);fill:#4B453E;}
	.st151{clip-path:url(#SVGID_8_);fill:#4C463F;}
	.st152{clip-path:url(#SVGID_8_);fill:#4D4740;}
	.st153{clip-path:url(#SVGID_8_);fill:#4E4841;}
	.st154{clip-path:url(#SVGID_8_);fill:#4F4942;}
	.st155{clip-path:url(#SVGID_8_);fill:#4F4943;}
	.st156{clip-path:url(#SVGID_8_);fill:#504A43;}
	.st157{clip-path:url(#SVGID_8_);fill:#514B44;}
	.st158{clip-path:url(#SVGID_8_);fill:#524C45;}
	.st159{clip-path:url(#SVGID_8_);fill:#534D46;}
	.st160{clip-path:url(#SVGID_8_);fill:#544E47;}
	.st161{clip-path:url(#SVGID_8_);fill:#554F48;}
	.st162{clip-path:url(#SVGID_8_);fill:#565049;}
	.st163{clip-path:url(#SVGID_8_);fill:#57514A;}
	.st164{clip-path:url(#SVGID_8_);fill:#58524B;}
	.st165{clip-path:url(#SVGID_8_);fill:#59534C;}
	.st166{clip-path:url(#SVGID_8_);fill:#5A544D;}
	.st167{clip-path:url(#SVGID_8_);fill:#5B554E;}
	.st168{clip-path:url(#SVGID_8_);fill:#5C564F;}
	.st169{clip-path:url(#SVGID_8_);fill:#5D5750;}
	.st170{clip-path:url(#SVGID_8_);fill:#5E5851;}
	.st171{clip-path:url(#SVGID_8_);fill:#5F5852;}
	.st172{clip-path:url(#SVGID_8_);fill:#5F5952;}
	.st173{clip-path:url(#SVGID_8_);fill:#605A53;}
	.st174{clip-path:url(#SVGID_8_);fill:#615B54;}
	.st175{clip-path:url(#SVGID_8_);fill:#625C55;}
	.st176{clip-path:url(#SVGID_8_);fill:#635D56;}
	.st177{clip-path:url(#SVGID_8_);fill:#645E57;}
	.st178{clip-path:url(#SVGID_8_);fill:#655F58;}
	.st179{clip-path:url(#SVGID_8_);fill:#666059;}
	.st180{clip-path:url(#SVGID_8_);fill:#67605A;}
	.st181{clip-path:url(#SVGID_8_);fill:#67615B;}
	.st182{clip-path:url(#SVGID_8_);fill:#68625C;}
	.st183{clip-path:url(#SVGID_8_);fill:#69635D;}
	.st184{clip-path:url(#SVGID_8_);fill:#6A645E;}
	.st185{clip-path:url(#SVGID_8_);fill:#6B655F;}
	.st186{clip-path:url(#SVGID_8_);fill:#6C6660;}
	.st187{clip-path:url(#SVGID_8_);fill:#6D6761;}
	.st188{clip-path:url(#SVGID_8_);fill:#6E6861;}
	.st189{clip-path:url(#SVGID_8_);fill:#6F6962;}
	.st190{clip-path:url(#SVGID_8_);fill:#706A63;}
	.st191{clip-path:url(#SVGID_8_);fill:#716B64;}
	.st192{clip-path:url(#SVGID_8_);fill:#726C66;}
	.st193{clip-path:url(#SVGID_8_);fill:#736D67;}
	.st194{clip-path:url(#SVGID_8_);fill:#746E68;}
	.st195{clip-path:url(#SVGID_8_);fill:#756F69;}
	.st196{clip-path:url(#SVGID_8_);fill:#76706A;}
	.st197{clip-path:url(#SVGID_8_);fill:#77716B;}
	.st198{clip-path:url(#SVGID_8_);fill:#78726C;}
	.st199{clip-path:url(#SVGID_8_);fill:#79736D;}
	.st200{clip-path:url(#SVGID_8_);fill:#7A746E;}
	.st201{clip-path:url(#SVGID_8_);fill:#7B756F;}
	.st202{clip-path:url(#SVGID_8_);fill:#7C7670;}
	.st203{clip-path:url(#SVGID_8_);fill:#7D7771;}
	.st204{clip-path:url(#SVGID_8_);fill:#7E7872;}
	.st205{clip-path:url(#SVGID_8_);fill:#7F7973;}
	.st206{clip-path:url(#SVGID_8_);fill:#807A74;}
	.st207{clip-path:url(#SVGID_8_);fill:#817B75;}
	.st208{clip-path:url(#SVGID_8_);fill:#827C76;}
	.st209{clip-path:url(#SVGID_8_);fill:#837D78;}
	.st210{clip-path:url(#SVGID_8_);fill:#847E79;}
	.st211{clip-path:url(#SVGID_8_);fill:#857F7A;}
	.st212{clip-path:url(#SVGID_8_);fill:#86817B;}
	.st213{clip-path:url(#SVGID_8_);fill:#87827C;}
	.st214{clip-path:url(#SVGID_8_);fill:#89837D;}
	.st215{clip-path:url(#SVGID_8_);fill:#8A847E;}
	.st216{clip-path:url(#SVGID_8_);fill:#8B857F;}
	.st217{clip-path:url(#SVGID_8_);fill:#8C8680;}
	.st218{clip-path:url(#SVGID_8_);fill:#8D8782;}
	.st219{clip-path:url(#SVGID_8_);fill:#8E8883;}
	.st220{clip-path:url(#SVGID_8_);fill:#8F8984;}
	.st221{clip-path:url(#SVGID_8_);fill:#908A85;}
	.st222{clip-path:url(#SVGID_8_);fill:#918B86;}
	.st223{clip-path:url(#SVGID_8_);fill:#928D87;}
	.st224{clip-path:url(#SVGID_8_);fill:#938E88;}
	.st225{clip-path:url(#SVGID_8_);fill:#948F8A;}
	.st226{clip-path:url(#SVGID_8_);fill:#95908B;}
	.st227{clip-path:url(#SVGID_8_);fill:#96918C;}
	.st228{clip-path:url(#SVGID_8_);fill:#98928D;}
	.st229{clip-path:url(#SVGID_8_);fill:#99938E;}
	.st230{clip-path:url(#SVGID_8_);fill:#9A9590;}
	.st231{clip-path:url(#SVGID_8_);fill:#9B9691;}
	.st232{clip-path:url(#SVGID_8_);fill:#9C9792;}
	.st233{clip-path:url(#SVGID_8_);fill:#9D9893;}
	.st234{clip-path:url(#SVGID_8_);fill:#9E9995;}
	.st235{clip-path:url(#SVGID_8_);fill:#9F9A96;}
	.st236{clip-path:url(#SVGID_8_);fill:#A09C97;}
	.st237{clip-path:url(#SVGID_8_);fill:#A29D98;}
	.st238{clip-path:url(#SVGID_8_);fill:#A39E9A;}
	.st239{clip-path:url(#SVGID_8_);fill:#A49F9B;}
	.st240{clip-path:url(#SVGID_8_);fill:#A5A09C;}
	.st241{clip-path:url(#SVGID_8_);fill:#A6A29D;}
	.st242{clip-path:url(#SVGID_8_);fill:#A7A39F;}
	.st243{clip-path:url(#SVGID_8_);fill:#A9A4A0;}
	.st244{clip-path:url(#SVGID_8_);fill:#AAA5A1;}
	.st245{clip-path:url(#SVGID_8_);fill:#ABA7A3;}
	.st246{clip-path:url(#SVGID_8_);fill:#ACA8A4;}
	.st247{clip-path:url(#SVGID_8_);fill:#AEA9A5;}
	.st248{clip-path:url(#SVGID_8_);fill:#AFAAA7;}
	.st249{clip-path:url(#SVGID_8_);fill:#B0ACA8;}
	.st250{clip-path:url(#SVGID_8_);fill:#B1ADA9;}
	.st251{clip-path:url(#SVGID_8_);fill:#B2AEAB;}
	.st252{clip-path:url(#SVGID_8_);fill:#B4AFAC;}
	.st253{clip-path:url(#SVGID_8_);fill:#B5B1AD;}
	.st254{clip-path:url(#SVGID_8_);fill:#B6B2AF;}
	.st255{clip-path:url(#SVGID_8_);fill:#B7B3B0;}
	.st256{clip-path:url(#SVGID_8_);fill:#B9B5B1;}
	.st257{clip-path:url(#SVGID_8_);fill:#BAB6B3;}
	.st258{clip-path:url(#SVGID_8_);fill:#BBB7B4;}
	.st259{clip-path:url(#SVGID_8_);fill:#BCB9B5;}
	.st260{clip-path:url(#SVGID_8_);fill:#BEBAB7;}
	.st261{clip-path:url(#SVGID_8_);fill:#BFBBB8;}
	.st262{clip-path:url(#SVGID_8_);fill:#C0BCB9;}
	.st263{clip-path:url(#SVGID_8_);fill:#C1BEBB;}
	.st264{clip-path:url(#SVGID_8_);fill:#C3BFBC;}
	.st265{clip-path:url(#SVGID_8_);fill:#C4C0BE;}
	.st266{clip-path:url(#SVGID_8_);fill:#C5C2BF;}
	.st267{clip-path:url(#SVGID_8_);fill:#C6C3C0;}
	.st268{clip-path:url(#SVGID_8_);fill:#C8C4C2;}
	.st269{clip-path:url(#SVGID_8_);fill:#C9C6C3;}
	.st270{clip-path:url(#SVGID_8_);fill:#CAC7C4;}
	.st271{clip-path:url(#SVGID_8_);fill:#CBC8C6;}
	.st272{clip-path:url(#SVGID_8_);fill:#CDCAC7;}
	.st273{clip-path:url(#SVGID_8_);fill:#CECBC9;}
	.st274{clip-path:url(#SVGID_8_);fill:#CFCCCA;}
	.st275{clip-path:url(#SVGID_8_);fill:#D1CECC;}
	.st276{clip-path:url(#SVGID_8_);fill:#D2CFCD;}
	.st277{clip-path:url(#SVGID_8_);fill:#D3D1CF;}
	.st278{clip-path:url(#SVGID_8_);fill:#D5D2D0;}
	.st279{clip-path:url(#SVGID_8_);fill:#D6D3D2;}
	.st280{clip-path:url(#SVGID_8_);fill:#D7D5D3;}
	.st281{clip-path:url(#SVGID_8_);fill:#D9D6D5;}
	.st282{clip-path:url(#SVGID_8_);fill:#DAD8D6;}
	.st283{clip-path:url(#SVGID_8_);fill:#DCD9D8;}
	.st284{clip-path:url(#SVGID_8_);fill:#DDDBD9;}
	.st285{clip-path:url(#SVGID_8_);fill:#DEDCDB;}
	.st286{clip-path:url(#SVGID_8_);fill:#E0DEDC;}
	.st287{clip-path:url(#SVGID_8_);fill:#E1DFDE;}
	.st288{clip-path:url(#SVGID_8_);fill:#E2E0DF;}
	.st289{clip-path:url(#SVGID_8_);fill:#E4E2E1;}
	.st290{clip-path:url(#SVGID_8_);fill:#E5E3E3;}
	.st291{clip-path:url(#SVGID_8_);fill:#E7E5E4;}
	.st292{clip-path:url(#SVGID_8_);fill:#E8E6E6;}
	.st293{clip-path:url(#SVGID_8_);fill:#EAE8E7;}
	.st294{clip-path:url(#SVGID_8_);fill:#EBEAE9;}
	.st295{clip-path:url(#SVGID_8_);fill:#ECEBEA;}
	.st296{clip-path:url(#SVGID_8_);fill:#EEEDEC;}
	.st297{clip-path:url(#SVGID_8_);fill:#EFEEEE;}
	.st298{clip-path:url(#SVGID_8_);fill:#F1F0EF;}
	.st299{clip-path:url(#SVGID_8_);fill:#F2F1F1;}
	.st300{clip-path:url(#SVGID_8_);fill:#F4F3F2;}
	.st301{clip-path:url(#SVGID_8_);fill:#F5F4F4;}
	.st302{clip-path:url(#SVGID_8_);fill:#F7F6F6;}
	.st303{clip-path:url(#SVGID_8_);fill:#F8F8F7;}
	.st304{clip-path:url(#SVGID_8_);fill:#FAF9F9;}
	.st305{clip-path:url(#SVGID_8_);fill:#FBFBFA;}
	.st306{clip-path:url(#SVGID_8_);fill:#FCFCFC;}
	.st307{clip-path:url(#SVGID_8_);fill:#FEFEFD;}
	.st308{clip-path:url(#SVGID_8_);fill:#FFFFFF;}
	.st309{filter:url(#Adobe_OpacityMaskFilter_2_);}
	.st310{filter:url(#Adobe_OpacityMaskFilter_3_);}
	.st311{mask:url(#SVGID_9_);fill:url(#SVGID_10_);}
	.st312{clip-path:url(#SVGID_12_);fill:#FFFFFF;}
	.st313{clip-path:url(#SVGID_12_);fill:#FEFEFD;}
	.st314{clip-path:url(#SVGID_12_);fill:#FCFCFC;}
	.st315{clip-path:url(#SVGID_12_);fill:#FBFBFA;}
	.st316{clip-path:url(#SVGID_12_);fill:#FAF9F9;}
	.st317{clip-path:url(#SVGID_12_);fill:#F8F8F7;}
	.st318{clip-path:url(#SVGID_12_);fill:#F7F6F6;}
	.st319{clip-path:url(#SVGID_12_);fill:#F5F4F4;}
	.st320{clip-path:url(#SVGID_12_);fill:#F4F3F2;}
	.st321{clip-path:url(#SVGID_12_);fill:#F2F1F1;}
	.st322{clip-path:url(#SVGID_12_);fill:#F1F0EF;}
	.st323{clip-path:url(#SVGID_12_);fill:#EFEEEE;}
	.st324{clip-path:url(#SVGID_12_);fill:#EEEDEC;}
	.st325{clip-path:url(#SVGID_12_);fill:#ECEBEA;}
	.st326{clip-path:url(#SVGID_12_);fill:#EBEAE9;}
	.st327{clip-path:url(#SVGID_12_);fill:#EAE8E7;}
	.st328{clip-path:url(#SVGID_12_);fill:#E8E6E6;}
	.st329{clip-path:url(#SVGID_12_);fill:#E7E5E4;}
	.st330{clip-path:url(#SVGID_12_);fill:#E5E3E3;}
	.st331{clip-path:url(#SVGID_12_);fill:#E4E2E1;}
	.st332{clip-path:url(#SVGID_12_);fill:#E2E0DF;}
	.st333{clip-path:url(#SVGID_12_);fill:#E1DFDE;}
	.st334{clip-path:url(#SVGID_12_);fill:#E0DEDC;}
	.st335{clip-path:url(#SVGID_12_);fill:#DEDCDB;}
	.st336{clip-path:url(#SVGID_12_);fill:#DDDBD9;}
	.st337{clip-path:url(#SVGID_12_);fill:#DCD9D8;}
	.st338{clip-path:url(#SVGID_12_);fill:#DAD8D6;}
	.st339{clip-path:url(#SVGID_12_);fill:#D9D6D5;}
	.st340{clip-path:url(#SVGID_12_);fill:#D7D5D3;}
	.st341{clip-path:url(#SVGID_12_);fill:#D6D3D2;}
	.st342{clip-path:url(#SVGID_12_);fill:#D5D2D0;}
	.st343{clip-path:url(#SVGID_12_);fill:#D3D1CF;}
	.st344{clip-path:url(#SVGID_12_);fill:#D2CFCD;}
	.st345{clip-path:url(#SVGID_12_);fill:#D1CECC;}
	.st346{clip-path:url(#SVGID_12_);fill:#CFCCCA;}
	.st347{clip-path:url(#SVGID_12_);fill:#CECBC9;}
	.st348{clip-path:url(#SVGID_12_);fill:#CDCAC7;}
	.st349{clip-path:url(#SVGID_12_);fill:#CBC8C6;}
	.st350{clip-path:url(#SVGID_12_);fill:#CAC7C4;}
	.st351{clip-path:url(#SVGID_12_);fill:#C9C6C3;}
	.st352{clip-path:url(#SVGID_12_);fill:#C8C4C2;}
	.st353{clip-path:url(#SVGID_12_);fill:#C6C3C0;}
	.st354{clip-path:url(#SVGID_12_);fill:#C5C2BF;}
	.st355{clip-path:url(#SVGID_12_);fill:#C4C0BE;}
	.st356{clip-path:url(#SVGID_12_);fill:#C3BFBC;}
	.st357{clip-path:url(#SVGID_12_);fill:#C1BEBB;}
	.st358{clip-path:url(#SVGID_12_);fill:#C0BCB9;}
	.st359{clip-path:url(#SVGID_12_);fill:#BFBBB8;}
	.st360{clip-path:url(#SVGID_12_);fill:#BEBAB7;}
	.st361{clip-path:url(#SVGID_12_);fill:#BCB9B5;}
	.st362{clip-path:url(#SVGID_12_);fill:#BBB7B4;}
	.st363{clip-path:url(#SVGID_12_);fill:#BAB6B3;}
	.st364{clip-path:url(#SVGID_12_);fill:#B9B5B1;}
	.st365{clip-path:url(#SVGID_12_);fill:#B7B3B0;}
	.st366{clip-path:url(#SVGID_12_);fill:#B6B2AF;}
	.st367{clip-path:url(#SVGID_12_);fill:#B5B1AD;}
	.st368{clip-path:url(#SVGID_12_);fill:#B4AFAC;}
	.st369{clip-path:url(#SVGID_12_);fill:#B2AEAB;}
	.st370{clip-path:url(#SVGID_12_);fill:#B1ADA9;}
	.st371{clip-path:url(#SVGID_12_);fill:#B0ACA8;}
	.st372{clip-path:url(#SVGID_12_);fill:#AFAAA7;}
	.st373{clip-path:url(#SVGID_12_);fill:#AEA9A5;}
	.st374{clip-path:url(#SVGID_12_);fill:#ACA8A4;}
	.st375{clip-path:url(#SVGID_12_);fill:#ABA7A3;}
	.st376{clip-path:url(#SVGID_12_);fill:#AAA5A1;}
	.st377{clip-path:url(#SVGID_12_);fill:#A9A4A0;}
	.st378{clip-path:url(#SVGID_12_);fill:#A7A39F;}
	.st379{clip-path:url(#SVGID_12_);fill:#A6A29D;}
	.st380{clip-path:url(#SVGID_12_);fill:#A5A09C;}
	.st381{clip-path:url(#SVGID_12_);fill:#A49F9B;}
	.st382{clip-path:url(#SVGID_12_);fill:#A39E9A;}
	.st383{clip-path:url(#SVGID_12_);fill:#A29D98;}
	.st384{clip-path:url(#SVGID_12_);fill:#A09C97;}
	.st385{clip-path:url(#SVGID_12_);fill:#9F9A96;}
	.st386{clip-path:url(#SVGID_12_);fill:#9E9995;}
	.st387{clip-path:url(#SVGID_12_);fill:#9D9893;}
	.st388{clip-path:url(#SVGID_12_);fill:#9C9792;}
	.st389{clip-path:url(#SVGID_12_);fill:#9B9691;}
	.st390{clip-path:url(#SVGID_12_);fill:#9A9590;}
	.st391{clip-path:url(#SVGID_12_);fill:#99938E;}
	.st392{clip-path:url(#SVGID_12_);fill:#98928D;}
	.st393{clip-path:url(#SVGID_12_);fill:#96918C;}
	.st394{clip-path:url(#SVGID_12_);fill:#95908B;}
	.st395{clip-path:url(#SVGID_12_);fill:#948F8A;}
	.st396{clip-path:url(#SVGID_12_);fill:#938E88;}
	.st397{clip-path:url(#SVGID_12_);fill:#928D87;}
	.st398{clip-path:url(#SVGID_12_);fill:#918B86;}
	.st399{clip-path:url(#SVGID_12_);fill:#908A85;}
	.st400{clip-path:url(#SVGID_12_);fill:#8F8984;}
	.st401{clip-path:url(#SVGID_12_);fill:#8E8883;}
	.st402{clip-path:url(#SVGID_12_);fill:#8D8782;}
	.st403{clip-path:url(#SVGID_12_);fill:#8C8680;}
	.st404{clip-path:url(#SVGID_12_);fill:#8B857F;}
	.st405{clip-path:url(#SVGID_12_);fill:#8A847E;}
	.st406{clip-path:url(#SVGID_12_);fill:#89837D;}
	.st407{clip-path:url(#SVGID_12_);fill:#87827C;}
	.st408{clip-path:url(#SVGID_12_);fill:#86817B;}
	.st409{clip-path:url(#SVGID_12_);fill:#857F7A;}
	.st410{clip-path:url(#SVGID_12_);fill:#847E79;}
	.st411{clip-path:url(#SVGID_12_);fill:#837D78;}
	.st412{clip-path:url(#SVGID_12_);fill:#827C76;}
	.st413{clip-path:url(#SVGID_12_);fill:#817B75;}
	.st414{clip-path:url(#SVGID_12_);fill:#807A74;}
	.st415{clip-path:url(#SVGID_12_);fill:#7F7973;}
	.st416{clip-path:url(#SVGID_12_);fill:#7E7872;}
	.st417{clip-path:url(#SVGID_12_);fill:#7D7771;}
	.st418{clip-path:url(#SVGID_12_);fill:#7C7670;}
	.st419{clip-path:url(#SVGID_12_);fill:#7B756F;}
	.st420{clip-path:url(#SVGID_12_);fill:#7A746E;}
	.st421{clip-path:url(#SVGID_12_);fill:#79736D;}
	.st422{clip-path:url(#SVGID_12_);fill:#78726C;}
	.st423{clip-path:url(#SVGID_12_);fill:#77716B;}
	.st424{clip-path:url(#SVGID_12_);fill:#76706A;}
	.st425{clip-path:url(#SVGID_12_);fill:#756F69;}
	.st426{clip-path:url(#SVGID_12_);fill:#746E68;}
	.st427{clip-path:url(#SVGID_12_);fill:#736D67;}
	.st428{clip-path:url(#SVGID_12_);fill:#726C66;}
	.st429{clip-path:url(#SVGID_12_);fill:#716B64;}
	.st430{clip-path:url(#SVGID_12_);fill:#706A63;}
	.st431{clip-path:url(#SVGID_12_);fill:#6F6962;}
	.st432{clip-path:url(#SVGID_12_);fill:#6E6861;}
	.st433{clip-path:url(#SVGID_12_);fill:#6D6761;}
	.st434{clip-path:url(#SVGID_12_);fill:#6C6660;}
	.st435{clip-path:url(#SVGID_12_);fill:#6B655F;}
	.st436{clip-path:url(#SVGID_12_);fill:#6A645E;}
	.st437{clip-path:url(#SVGID_12_);fill:#69635D;}
	.st438{clip-path:url(#SVGID_12_);fill:#68625C;}
	.st439{clip-path:url(#SVGID_12_);fill:#67615B;}
	.st440{clip-path:url(#SVGID_12_);fill:#67605A;}
	.st441{clip-path:url(#SVGID_12_);fill:#666059;}
	.st442{clip-path:url(#SVGID_12_);fill:#655F58;}
	.st443{clip-path:url(#SVGID_12_);fill:#645E57;}
	.st444{clip-path:url(#SVGID_12_);fill:#635D56;}
	.st445{clip-path:url(#SVGID_12_);fill:#625C55;}
	.st446{clip-path:url(#SVGID_12_);fill:#615B54;}
	.st447{clip-path:url(#SVGID_12_);fill:#605A53;}
	.st448{clip-path:url(#SVGID_12_);fill:#5F5952;}
	.st449{clip-path:url(#SVGID_12_);fill:#5F5852;}
	.st450{clip-path:url(#SVGID_12_);fill:#5E5851;}
	.st451{clip-path:url(#SVGID_12_);fill:#5D5750;}
	.st452{clip-path:url(#SVGID_12_);fill:#5C564F;}
	.st453{clip-path:url(#SVGID_12_);fill:#5B554E;}
	.st454{clip-path:url(#SVGID_12_);fill:#5A544D;}
	.st455{clip-path:url(#SVGID_12_);fill:#59534C;}
	.st456{clip-path:url(#SVGID_12_);fill:#58524B;}
	.st457{clip-path:url(#SVGID_12_);fill:#57514A;}
	.st458{clip-path:url(#SVGID_12_);fill:#565049;}
	.st459{clip-path:url(#SVGID_12_);fill:#554F48;}
	.st460{clip-path:url(#SVGID_12_);fill:#544E47;}
	.st461{clip-path:url(#SVGID_12_);fill:#534D46;}
	.st462{clip-path:url(#SVGID_12_);fill:#524C45;}
	.st463{clip-path:url(#SVGID_12_);fill:#514B44;}
	.st464{clip-path:url(#SVGID_12_);fill:#504A43;}
	.st465{clip-path:url(#SVGID_12_);fill:#4F4943;}
	.st466{clip-path:url(#SVGID_12_);fill:#4F4942;}
	.st467{clip-path:url(#SVGID_12_);fill:#4E4841;}
	.st468{clip-path:url(#SVGID_12_);fill:#4D4740;}
	.st469{clip-path:url(#SVGID_12_);fill:#4C463F;}
	.st470{clip-path:url(#SVGID_12_);fill:#4B453E;}
	.st471{clip-path:url(#SVGID_12_);fill:#4A453E;}
	.st472{clip-path:url(#SVGID_12_);fill:#4A443D;}
	.st473{clip-path:url(#SVGID_12_);fill:#49433C;}
	.st474{clip-path:url(#SVGID_12_);fill:#48423B;}
	.st475{clip-path:url(#SVGID_12_);fill:#47413B;}
	.st476{clip-path:url(#SVGID_12_);fill:#46413A;}
	.st477{clip-path:url(#SVGID_12_);fill:#464039;}
	.st478{clip-path:url(#SVGID_12_);fill:#453F38;}
	.st479{clip-path:url(#SVGID_12_);fill:#443E37;}
	.st480{clip-path:url(#SVGID_12_);fill:#433E37;}
	.st481{clip-path:url(#SVGID_12_);fill:#433D36;}
	.st482{clip-path:url(#SVGID_12_);fill:#423C35;}
	.st483{clip-path:url(#SVGID_12_);fill:#413B34;}
	.st484{clip-path:url(#SVGID_12_);fill:#403B34;}
	.st485{clip-path:url(#SVGID_12_);fill:#3F3A33;}
	.st486{clip-path:url(#SVGID_12_);fill:#3F3932;}
	.st487{clip-path:url(#SVGID_12_);fill:#3E3831;}
	.st488{clip-path:url(#SVGID_12_);fill:#3D3831;}
	.st489{clip-path:url(#SVGID_12_);fill:#3C3730;}
	.st490{clip-path:url(#SVGID_12_);fill:#3B362F;}
	.st491{clip-path:url(#SVGID_12_);fill:#3B352F;}
	.st492{clip-path:url(#SVGID_12_);fill:#3A352E;}
	.st493{clip-path:url(#SVGID_12_);fill:#39342D;}
	.st494{clip-path:url(#SVGID_12_);fill:#39332D;}
	.st495{clip-path:url(#SVGID_12_);fill:#38332C;}
	.st496{clip-path:url(#SVGID_12_);fill:#37322B;}
	.st497{clip-path:url(#SVGID_12_);fill:#36312B;}
	.st498{clip-path:url(#SVGID_12_);fill:#36312A;}
	.st499{clip-path:url(#SVGID_12_);fill:#353029;}
	.st500{clip-path:url(#SVGID_12_);fill:#342F29;}
	.st501{clip-path:url(#SVGID_12_);fill:#342F28;}
	.st502{clip-path:url(#SVGID_12_);fill:#332E27;}
	.st503{clip-path:url(#SVGID_12_);fill:#322D27;}
	.st504{clip-path:url(#SVGID_12_);fill:#322D26;}
	.st505{clip-path:url(#SVGID_12_);fill:#312C25;}
	.st506{clip-path:url(#SVGID_12_);fill:#302B25;}
	.st507{clip-path:url(#SVGID_12_);fill:#2F2B24;}
	.st508{clip-path:url(#SVGID_12_);fill:#2F2A23;}
	.st509{clip-path:url(#SVGID_12_);fill:#2E2923;}
	.st510{clip-path:url(#SVGID_12_);fill:#2D2922;}
	.st511{clip-path:url(#SVGID_12_);fill:#2D2821;}
	.st512{clip-path:url(#SVGID_12_);fill:#2C2821;}
	.st513{clip-path:url(#SVGID_12_);fill:#2B2720;}
	.st514{clip-path:url(#SVGID_12_);fill:#2B261F;}
	.st515{clip-path:url(#SVGID_12_);fill:#2A261F;}
	.st516{clip-path:url(#SVGID_12_);fill:#29251E;}
	.st517{clip-path:url(#SVGID_12_);fill:#29241E;}
	.st518{clip-path:url(#SVGID_12_);fill:#28241D;}
	.st519{clip-path:url(#SVGID_12_);fill:#27231C;}
	.st520{clip-path:url(#SVGID_12_);fill:#26221B;}
	.st521{clip-path:url(#SVGID_12_);fill:#25211A;}
	.st522{clip-path:url(#SVGID_12_);fill:#242019;}
	.st523{clip-path:url(#SVGID_12_);fill:#232018;}
	.st524{clip-path:url(#SVGID_12_);fill:#231F18;}
	.st525{clip-path:url(#SVGID_12_);fill:#221E17;}
	.st526{clip-path:url(#SVGID_12_);fill:#211E16;}
</style>
<g>
	<g>
		<g>
			<path class="st0" d="M254.2,571.3c-1.9-2.5-3.6-5.1-5.1-7.9C250.3,566.4,252,569.1,254.2,571.3z"/>
		</g>
		<g>
			<g>
				<defs>
					<path id="SVGID_1_" d="M309.6,412l-9.3-10.2l-9.3,10.2c-7.6,8.2-73.9,81.5-73.9,124.3c0,13.5,3.2,26.2,8.9,37.4
						c-2.4-5.7-3.7-12-3.7-18.6c0-23,30.1-57.5,39.3-67.5l9.3-10.1c9.4-13.4,19.9-26.6,29.5-37.7c25.5,29.6,57.9,74.5,57.9,96.5
						c0,31.9-26,57.9-57.9,57.9c-0.2,0-0.4,0-0.5,0c-8.1,6-18.1,9.6-28.9,9.6c-14.1,0-26.9-6.1-35.8-15.7
						c15.3,19.2,38.8,31.6,65.2,31.6c45.9,0,83.3-37.4,83.3-83.3C383.6,493.6,317.2,420.2,309.6,412z"/>
				</defs>
				<clipPath id="SVGID_2_">
					<use xlink:href="#SVGID_1_"  style="overflow:visible;"/>
				</clipPath>
				<rect x="217" y="487.4" class="st1" width="166.6" height="132.2"/>
				<rect x="217" y="485.4" class="st1" width="166.6" height="1.9"/>
				<rect x="217" y="483.5" class="st2" width="166.6" height="1.9"/>
				<rect x="217" y="481.6" class="st3" width="166.6" height="1.9"/>
				<rect x="217" y="479.6" class="st4" width="166.6" height="1.9"/>
				<rect x="217" y="477.7" class="st5" width="166.6" height="1.9"/>
				<rect x="217" y="475.7" class="st6" width="166.6" height="1.9"/>
				<rect x="217" y="473.8" class="st7" width="166.6" height="1.9"/>
				<rect x="217" y="471.8" class="st8" width="166.6" height="1.9"/>
				<rect x="217" y="469.9" class="st9" width="166.6" height="1.9"/>
				<rect x="217" y="468" class="st10" width="166.6" height="1.9"/>
				<rect x="217" y="466" class="st11" width="166.6" height="1.9"/>
				<rect x="217" y="464.1" class="st12" width="166.6" height="1.9"/>
				<rect x="217" y="462.1" class="st13" width="166.6" height="1.9"/>
				<rect x="217" y="460.2" class="st14" width="166.6" height="1.9"/>
				<rect x="217" y="458.2" class="st15" width="166.6" height="1.9"/>
				<rect x="217" y="456.3" class="st16" width="166.6" height="1.9"/>
				<rect x="217" y="454.4" class="st17" width="166.6" height="1.9"/>
				<rect x="217" y="452.4" class="st18" width="166.6" height="1.9"/>
				<rect x="217" y="450.5" class="st19" width="166.6" height="1.9"/>
				<rect x="217" y="448.5" class="st20" width="166.6" height="1.9"/>
				<rect x="217" y="446.6" class="st21" width="166.6" height="1.9"/>
				<rect x="217" y="444.6" class="st22" width="166.6" height="1.9"/>
				<rect x="217" y="442.7" class="st23" width="166.6" height="1.9"/>
				<rect x="217" y="440.8" class="st24" width="166.6" height="1.9"/>
				<rect x="217" y="438.8" class="st25" width="166.6" height="1.9"/>
				<rect x="217" y="436.9" class="st26" width="166.6" height="1.9"/>
				<rect x="217" y="434.9" class="st27" width="166.6" height="1.9"/>
				<rect x="217" y="433" class="st28" width="166.6" height="1.9"/>
				<rect x="217" y="431" class="st29" width="166.6" height="1.9"/>
				<rect x="217" y="429.1" class="st30" width="166.6" height="1.9"/>
				<rect x="217" y="427.1" class="st31" width="166.6" height="1.9"/>
				<rect x="217" y="425.2" class="st32" width="166.6" height="1.9"/>
				<rect x="217" y="423.3" class="st33" width="166.6" height="1.9"/>
				<rect x="217" y="421.3" class="st34" width="166.6" height="1.9"/>
				<rect x="217" y="419.4" class="st35" width="166.6" height="1.9"/>
				<rect x="217" y="417.4" class="st36" width="166.6" height="1.9"/>
				<rect x="217" y="415.5" class="st37" width="166.6" height="1.9"/>
				<rect x="217" y="413.5" class="st38" width="166.6" height="1.9"/>
				<rect x="217" y="411.6" class="st39" width="166.6" height="1.9"/>
				<rect x="217" y="409.7" class="st40" width="166.6" height="1.9"/>
				<rect x="217" y="407.7" class="st41" width="166.6" height="1.9"/>
				<rect x="217" y="405.8" class="st42" width="166.6" height="1.9"/>
				<rect x="217" y="403.8" class="st43" width="166.6" height="1.9"/>
				<rect x="217" y="401.9" class="st44" width="166.6" height="1.9"/>
				<rect x="217" y="401.9" class="st45" width="166.6" height="0"/>
			</g>
		</g>
		<g>
			<path class="st0" d="M235,588c-3.5-4.4-6.6-9.2-9.1-14.3C228.1,579,231.2,583.8,235,588z"/>
		</g>
		<g>
			<path class="st0" d="M270.8,603.7c10.8,0,20.8-3.6,28.9-9.6c-18.5-0.2-35-9.1-45.5-22.8c-2.2-2.2-3.9-4.9-5.1-7.9
				c-4.3-8.1-6.8-17.3-6.8-27.1c0-13.7,12.7-36.4,28.4-58.8l-9.3,10.1c-9.2,10-39.3,44.5-39.3,67.5c0,6.6,1.3,12.9,3.7,18.6
				c2.6,5.1,5.6,9.9,9.1,14.3C243.9,597.6,256.7,603.7,270.8,603.7z"/>
		</g>
		<g>
			<g>
				<defs>
					<path id="SVGID_3_" d="M280.2,487.6l-9.3-10.2l0,0l-9.3,10.1c-9.2,10-39.3,44.5-39.3,67.5c0,6.6,1.3,12.9,3.7,18.6
						c2.6,5.1,5.6,9.9,9.1,14.3c8.9,9.7,21.6,15.7,35.8,15.7c10.8,0,20.8-3.6,28.9-9.6c11.9-8.9,19.7-23.1,19.7-39.1
						C319.4,532.1,289.4,497.6,280.2,487.6z M249.2,563.4c-1-2.6-1.6-5.4-1.6-8.3c0-7.1,10.8-24.1,23.2-39.4
						c12.4,15.3,23.2,32.3,23.2,39.4c0,12.8-10.4,23.2-23.2,23.2c-6.5,0-12.4-2.7-16.6-7C252,569.1,250.3,566.4,249.2,563.4z"/>
				</defs>
				<clipPath id="SVGID_4_">
					<use xlink:href="#SVGID_3_"  style="overflow:visible;"/>
				</clipPath>
				<rect x="247.6" y="578.2" class="st46" width="46.4" height="0"/>
				<rect x="247.6" y="577.5" class="st47" width="46.4" height="0.8"/>
				<rect x="247.6" y="576.7" class="st48" width="46.4" height="0.8"/>
				<rect x="247.6" y="575.9" class="st49" width="46.4" height="0.8"/>
				<rect x="247.6" y="575.2" class="st50" width="46.4" height="0.8"/>
				<rect x="247.6" y="574.4" class="st51" width="46.4" height="0.8"/>
				<rect x="247.6" y="573.6" class="st52" width="46.4" height="0.8"/>
				<rect x="247.6" y="572.8" class="st53" width="46.4" height="0.8"/>
				<rect x="247.6" y="572.1" class="st54" width="46.4" height="0.8"/>
				<rect x="247.6" y="571.3" class="st55" width="46.4" height="0.8"/>
				<rect x="247.6" y="570.5" class="st56" width="46.4" height="0.8"/>
				<rect x="247.6" y="569.8" class="st57" width="46.4" height="0.8"/>
				<rect x="247.6" y="569" class="st58" width="46.4" height="0.8"/>
				<rect x="247.6" y="515.7" class="st58" width="46.4" height="53.3"/>
				<path class="st59" d="M222.2,603.7h97.3H222.2z"/>
				<rect x="222.2" y="602.9" class="st59" width="97.3" height="0.8"/>
				<rect x="222.2" y="602.2" class="st60" width="97.3" height="0.8"/>
				<rect x="222.2" y="601.4" class="st61" width="97.3" height="0.8"/>
				<rect x="222.2" y="600.6" class="st62" width="97.3" height="0.8"/>
				<rect x="222.2" y="599.8" class="st63" width="97.3" height="0.8"/>
				<rect x="222.2" y="599.1" class="st64" width="97.3" height="0.8"/>
				<rect x="222.2" y="598.3" class="st65" width="97.3" height="0.8"/>
				<rect x="222.2" y="597.5" class="st66" width="97.3" height="0.8"/>
				<rect x="222.2" y="596.8" class="st67" width="97.3" height="0.8"/>
				<rect x="222.2" y="596" class="st68" width="97.3" height="0.8"/>
				<rect x="222.2" y="595.2" class="st69" width="97.3" height="0.8"/>
				<rect x="222.2" y="594.4" class="st70" width="97.3" height="0.8"/>
				<rect x="222.2" y="593.7" class="st71" width="97.3" height="0.8"/>
				<rect x="222.2" y="592.9" class="st72" width="97.3" height="0.8"/>
				<rect x="222.2" y="592.1" class="st73" width="97.3" height="0.8"/>
				<rect x="222.2" y="591.4" class="st74" width="97.3" height="0.8"/>
				<rect x="222.2" y="590.6" class="st75" width="97.3" height="0.8"/>
				<rect x="222.2" y="589.8" class="st76" width="97.3" height="0.8"/>
				<rect x="222.2" y="589" class="st77" width="97.3" height="0.8"/>
				<rect x="222.2" y="588.3" class="st78" width="97.3" height="0.8"/>
				<rect x="222.2" y="587.5" class="st79" width="97.3" height="0.8"/>
				<rect x="222.2" y="586.7" class="st80" width="97.3" height="0.8"/>
				<rect x="222.2" y="586" class="st81" width="97.3" height="0.8"/>
				<rect x="222.2" y="585.2" class="st82" width="97.3" height="0.8"/>
				<rect x="222.2" y="584.4" class="st83" width="97.3" height="0.8"/>
				<rect x="222.2" y="583.6" class="st84" width="97.3" height="0.8"/>
				<rect x="222.2" y="582.9" class="st85" width="97.3" height="0.8"/>
				<rect x="222.2" y="582.1" class="st86" width="97.3" height="0.8"/>
				<rect x="222.2" y="581.3" class="st87" width="97.3" height="0.8"/>
				<rect x="222.2" y="580.6" class="st88" width="97.3" height="0.8"/>
				<rect x="222.2" y="579.8" class="st89" width="97.3" height="0.8"/>
				<rect x="222.2" y="579" class="st90" width="97.3" height="0.8"/>
				<rect x="222.2" y="578.2" class="st46" width="97.3" height="0.8"/>
				<rect x="222.2" y="577.5" class="st47" width="97.3" height="0.8"/>
				<rect x="222.2" y="576.7" class="st48" width="97.3" height="0.8"/>
				<rect x="222.2" y="575.9" class="st49" width="97.3" height="0.8"/>
				<rect x="222.2" y="575.2" class="st50" width="97.3" height="0.8"/>
				<rect x="222.2" y="574.4" class="st51" width="97.3" height="0.8"/>
				<rect x="222.2" y="573.6" class="st52" width="97.3" height="0.8"/>
				<rect x="222.2" y="572.8" class="st53" width="97.3" height="0.8"/>
				<rect x="222.2" y="572.1" class="st54" width="97.3" height="0.8"/>
				<rect x="222.2" y="571.3" class="st55" width="97.3" height="0.8"/>
				<rect x="222.2" y="570.5" class="st56" width="97.3" height="0.8"/>
				<rect x="222.2" y="569.8" class="st57" width="97.3" height="0.8"/>
				<rect x="222.2" y="569" class="st58" width="97.3" height="0.8"/>
				<rect x="222.2" y="477.5" class="st58" width="97.3" height="91.5"/>
			</g>
		</g>
		<defs>
			<filter id="Adobe_OpacityMaskFilter" filterUnits="userSpaceOnUse" x="242.4" y="477.5" width="41.9" height="86">
				<feFlood  style="flood-color:white;flood-opacity:1" result="back"/>
				<feBlend  in="SourceGraphic" in2="back" mode="normal"/>
			</filter>
		</defs>
		<mask maskUnits="userSpaceOnUse" x="242.4" y="477.5" width="41.9" height="86" id="SVGID_5_">
			<g class="st91">
				<defs>
					<filter id="Adobe_OpacityMaskFilter_1_" filterUnits="userSpaceOnUse" x="242.4" y="477.5" width="41.9" height="86">
						<feFlood  style="flood-color:white;flood-opacity:1" result="back"/>
						<feBlend  in="SourceGraphic" in2="back" mode="normal"/>
					</filter>
				</defs>
				<mask maskUnits="userSpaceOnUse" x="242.4" y="477.5" width="41.9" height="86" id="SVGID_5_">
					<g class="st92">
					</g>
				</mask>
				<linearGradient id="SVGID_6_" gradientUnits="userSpaceOnUse" x1="247.3112" y1="516.2551" x2="271.5356" y2="524.2279">
					<stop  offset="0" style="stop-color:#FFFFFF"/>
					<stop  offset="1" style="stop-color:#000000"/>
				</linearGradient>
				<path class="st93" d="M270.8,477.5L270.8,477.5c-15.7,22.4-28.4,45.1-28.4,58.8c0,9.8,2.5,19,6.8,27.1c-1-2.6-1.6-5.4-1.6-8.3
					c0-7.1,10.8-24.1,23.2-39.4c1.9,2.4,3.8,4.8,5.7,7.3l7.8-30.7c-1.6-1.8-3-3.4-4.1-4.6L270.8,477.5z"/>
			</g>
		</mask>
		<g>
			<g>
				<defs>
					<path id="SVGID_7_" d="M270.8,477.5L270.8,477.5c-15.7,22.4-28.4,45.1-28.4,58.8c0,9.8,2.5,19,6.8,27.1c-1-2.6-1.6-5.4-1.6-8.3
						c0-7.1,10.8-24.1,23.2-39.4c1.9,2.4,3.8,4.8,5.7,7.3l7.8-30.7c-1.6-1.8-3-3.4-4.1-4.6L270.8,477.5z"/>
				</defs>
				<clipPath id="SVGID_8_">
					<use xlink:href="#SVGID_7_"  style="overflow:visible;"/>
				</clipPath>
				<polygon class="st94" points="260.1,477.5 242.4,531.2 242.4,477.5 				"/>
				<polygon class="st94" points="260.2,477.5 242.4,531.6 242.4,531.2 260.1,477.5 				"/>
				<polygon class="st95" points="260.3,477.5 242.4,531.9 242.4,531.6 260.2,477.5 				"/>
				<polygon class="st96" points="260.4,477.5 242.4,532.3 242.4,531.9 260.3,477.5 				"/>
				<polygon class="st97" points="260.6,477.5 242.4,532.7 242.4,532.3 260.4,477.5 				"/>
				<polygon class="st98" points="260.7,477.5 242.4,533.1 242.4,532.7 260.6,477.5 				"/>
				<polygon class="st99" points="260.8,477.5 242.4,533.4 242.4,533.1 260.7,477.5 				"/>
				<polygon class="st99" points="260.9,477.5 242.4,533.8 242.4,533.4 260.8,477.5 				"/>
				<polygon class="st100" points="261.1,477.5 242.4,534.2 242.4,533.8 260.9,477.5 				"/>
				<polygon class="st101" points="261.2,477.5 242.4,534.5 242.4,534.2 261.1,477.5 				"/>
				<polygon class="st101" points="261.3,477.5 242.4,534.9 242.4,534.5 261.2,477.5 				"/>
				<polygon class="st102" points="261.4,477.5 242.4,535.3 242.4,534.9 261.3,477.5 				"/>
				<polygon class="st103" points="261.6,477.5 242.4,535.7 242.4,535.3 261.4,477.5 				"/>
				<polygon class="st104" points="261.7,477.5 242.4,536 242.4,535.7 261.6,477.5 				"/>
				<polygon class="st105" points="261.8,477.5 242.4,536.4 242.4,536 261.7,477.5 				"/>
				<polygon class="st106" points="261.9,477.5 242.4,536.8 242.4,536.4 261.8,477.5 				"/>
				<polygon class="st107" points="262,477.5 242.4,537.2 242.4,536.8 261.9,477.5 				"/>
				<polygon class="st108" points="262.2,477.5 242.4,537.5 242.4,537.2 262,477.5 				"/>
				<polygon class="st109" points="262.3,477.5 242.4,537.9 242.4,537.5 262.2,477.5 				"/>
				<polygon class="st110" points="262.4,477.5 242.4,538.3 242.4,537.9 262.3,477.5 				"/>
				<polygon class="st111" points="262.5,477.5 242.4,538.6 242.4,538.3 262.4,477.5 				"/>
				<polygon class="st112" points="262.7,477.5 242.4,539 242.4,538.6 262.5,477.5 				"/>
				<polygon class="st113" points="262.8,477.5 242.4,539.4 242.4,539 262.7,477.5 				"/>
				<polygon class="st114" points="262.9,477.5 242.4,539.8 242.4,539.4 262.8,477.5 				"/>
				<polygon class="st115" points="263,477.5 242.4,540.1 242.4,539.8 262.9,477.5 				"/>
				<polygon class="st116" points="263.1,477.5 242.4,540.5 242.4,540.1 263,477.5 				"/>
				<polygon class="st117" points="263.3,477.5 242.4,540.9 242.4,540.5 263.1,477.5 				"/>
				<polygon class="st118" points="263.4,477.5 242.4,541.3 242.4,540.9 263.3,477.5 				"/>
				<polygon class="st119" points="263.5,477.5 242.4,541.6 242.4,541.3 263.4,477.5 				"/>
				<polygon class="st120" points="263.6,477.5 242.4,542 242.4,541.6 263.5,477.5 				"/>
				<polygon class="st121" points="263.8,477.5 242.4,542.4 242.4,542 263.6,477.5 				"/>
				<polygon class="st122" points="263.9,477.5 242.4,542.7 242.4,542.4 263.8,477.5 				"/>
				<polygon class="st123" points="264,477.5 242.4,543.1 242.4,542.7 263.9,477.5 				"/>
				<polygon class="st124" points="264.1,477.5 242.4,543.5 242.4,543.1 264,477.5 				"/>
				<polygon class="st125" points="264.3,477.5 242.4,543.9 242.4,543.5 264.1,477.5 				"/>
				<polygon class="st126" points="264.4,477.5 242.4,544.2 242.4,543.9 264.3,477.5 				"/>
				<polygon class="st127" points="264.5,477.5 242.4,544.6 242.4,544.2 264.4,477.5 				"/>
				<polygon class="st128" points="264.6,477.5 242.4,545 242.4,544.6 264.5,477.5 				"/>
				<polygon class="st129" points="264.7,477.5 242.4,545.3 242.4,545 264.6,477.5 				"/>
				<polygon class="st130" points="264.9,477.5 242.4,545.7 242.4,545.3 264.7,477.5 				"/>
				<polygon class="st131" points="265,477.5 242.4,546.1 242.4,545.7 264.9,477.5 				"/>
				<polygon class="st132" points="265.1,477.5 242.4,546.5 242.4,546.1 265,477.5 				"/>
				<polygon class="st133" points="265.2,477.5 242.4,546.8 242.4,546.5 265.1,477.5 				"/>
				<polygon class="st134" points="265.4,477.5 242.4,547.2 242.4,546.8 265.2,477.5 				"/>
				<polygon class="st135" points="265.5,477.5 242.4,547.6 242.4,547.2 265.4,477.5 				"/>
				<polygon class="st136" points="265.6,477.5 242.4,548 242.4,547.6 265.5,477.5 				"/>
				<polygon class="st137" points="265.7,477.5 242.4,548.3 242.4,548 265.6,477.5 				"/>
				<polygon class="st138" points="265.8,477.5 242.4,548.7 242.4,548.3 265.7,477.5 				"/>
				<polygon class="st139" points="266,477.5 242.4,549.1 242.4,548.7 265.8,477.5 				"/>
				<polygon class="st140" points="266.1,477.5 242.4,549.4 242.4,549.1 266,477.5 				"/>
				<polygon class="st141" points="266.2,477.5 242.4,549.8 242.4,549.4 266.1,477.5 				"/>
				<polygon class="st142" points="266.3,477.5 242.4,550.2 242.4,549.8 266.2,477.5 				"/>
				<polygon class="st143" points="266.5,477.5 242.4,550.6 242.4,550.2 266.3,477.5 				"/>
				<polygon class="st144" points="266.6,477.5 242.4,550.9 242.4,550.6 266.5,477.5 				"/>
				<polygon class="st145" points="266.7,477.5 242.4,551.3 242.4,550.9 266.6,477.5 				"/>
				<polygon class="st146" points="266.8,477.5 242.4,551.7 242.4,551.3 266.7,477.5 				"/>
				<polygon class="st147" points="266.9,477.5 242.4,552.1 242.4,551.7 266.8,477.5 				"/>
				<polygon class="st148" points="267.1,477.5 242.4,552.4 242.4,552.1 266.9,477.5 				"/>
				<polygon class="st149" points="267.2,477.5 242.4,552.8 242.4,552.4 267.1,477.5 				"/>
				<polygon class="st150" points="267.3,477.5 242.4,553.2 242.4,552.8 267.2,477.5 				"/>
				<polygon class="st151" points="267.4,477.5 242.4,553.5 242.4,553.2 267.3,477.5 				"/>
				<polygon class="st152" points="267.6,477.5 242.4,553.9 242.4,553.5 267.4,477.5 				"/>
				<polygon class="st153" points="267.7,477.5 242.4,554.3 242.4,553.9 267.6,477.5 				"/>
				<polygon class="st154" points="267.8,477.5 242.4,554.7 242.4,554.3 267.7,477.5 				"/>
				<polygon class="st155" points="267.9,477.5 242.4,555 242.4,554.7 267.8,477.5 				"/>
				<polygon class="st156" points="268.1,477.5 242.4,555.4 242.4,555 267.9,477.5 				"/>
				<polygon class="st157" points="268.2,477.5 242.4,555.8 242.4,555.4 268.1,477.5 				"/>
				<polygon class="st158" points="268.3,477.5 242.4,556.2 242.4,555.8 268.2,477.5 				"/>
				<polygon class="st159" points="268.4,477.5 242.4,556.5 242.4,556.2 268.3,477.5 				"/>
				<polygon class="st160" points="268.5,477.5 242.4,556.9 242.4,556.5 268.4,477.5 				"/>
				<polygon class="st160" points="268.7,477.5 242.4,557.3 242.4,556.9 268.5,477.5 				"/>
				<polygon class="st161" points="268.8,477.5 242.4,557.6 242.4,557.3 268.7,477.5 				"/>
				<polygon class="st162" points="268.9,477.5 242.4,558 242.4,557.6 268.8,477.5 				"/>
				<polygon class="st163" points="269,477.5 242.4,558.4 242.4,558 268.9,477.5 				"/>
				<polygon class="st164" points="269.2,477.5 242.4,558.8 242.4,558.4 269,477.5 				"/>
				<polygon class="st165" points="269.3,477.5 242.4,559.1 242.4,558.8 269.2,477.5 				"/>
				<polygon class="st165" points="269.4,477.5 242.4,559.5 242.4,559.1 269.3,477.5 				"/>
				<polygon class="st166" points="269.5,477.5 242.4,559.9 242.4,559.5 269.4,477.5 				"/>
				<polygon class="st167" points="269.6,477.5 242.4,560.2 242.4,559.9 269.5,477.5 				"/>
				<polygon class="st168" points="269.8,477.5 242.4,560.6 242.4,560.2 269.6,477.5 				"/>
				<polygon class="st169" points="269.9,477.5 242.4,561 242.4,560.6 269.8,477.5 				"/>
				<polygon class="st170" points="270,477.5 242.4,561.4 242.4,561 269.9,477.5 				"/>
				<polygon class="st171" points="270.1,477.5 242.4,561.7 242.4,561.4 270,477.5 				"/>
				<polygon class="st172" points="270.3,477.5 242.4,562.1 242.4,561.7 270.1,477.5 				"/>
				<polygon class="st173" points="270.4,477.5 242.4,562.5 242.4,562.1 270.3,477.5 				"/>
				<polygon class="st174" points="270.5,477.5 242.4,562.9 242.4,562.5 270.4,477.5 				"/>
				<polygon class="st175" points="270.6,477.5 242.4,563.2 242.4,562.9 270.5,477.5 				"/>
				<polygon class="st176" points="270.7,477.5 242.5,563.3 242.4,563.3 242.4,563.2 270.6,477.5 				"/>
				<polygon class="st177" points="270.9,477.5 242.6,563.3 242.5,563.3 270.7,477.5 				"/>
				<polygon class="st178" points="271,477.5 242.7,563.4 242.6,563.3 270.9,477.5 				"/>
				<polygon class="st179" points="271.1,477.5 242.8,563.4 242.8,563.4 242.7,563.4 271,477.5 				"/>
				<polygon class="st180" points="271.2,477.5 242.9,563.4 242.8,563.4 271.1,477.5 				"/>
				<polygon class="st181" points="271.4,477.5 243.1,563.4 242.9,563.4 271.2,477.5 				"/>
				<polygon class="st182" points="271.5,477.5 243.2,563.4 243.1,563.4 271.4,477.5 				"/>
				<polygon class="st183" points="271.6,477.5 243.3,563.4 243.2,563.4 271.5,477.5 				"/>
				<polygon class="st184" points="271.7,477.5 243.4,563.4 243.3,563.4 271.6,477.5 				"/>
				<polygon class="st185" points="271.9,477.5 243.6,563.4 243.4,563.4 271.7,477.5 				"/>
				<polygon class="st186" points="272,477.5 243.7,563.4 243.6,563.4 271.9,477.5 				"/>
				<polygon class="st187" points="272.1,477.5 243.8,563.4 243.7,563.4 272,477.5 				"/>
				<polygon class="st188" points="272.2,477.5 243.9,563.4 243.8,563.4 272.1,477.5 				"/>
				<polygon class="st189" points="272.3,477.5 244.1,563.4 243.9,563.4 272.2,477.5 				"/>
				<polygon class="st190" points="272.5,477.5 244.2,563.4 244.1,563.4 272.3,477.5 				"/>
				<polygon class="st191" points="272.6,477.5 244.3,563.4 244.2,563.4 272.5,477.5 				"/>
				<polygon class="st192" points="272.7,477.5 244.4,563.4 244.3,563.4 272.6,477.5 				"/>
				<polygon class="st193" points="272.8,477.5 244.5,563.4 244.4,563.4 272.7,477.5 				"/>
				<polygon class="st194" points="273,477.5 244.7,563.4 244.5,563.4 272.8,477.5 				"/>
				<polygon class="st195" points="273.1,477.5 244.8,563.4 244.7,563.4 273,477.5 				"/>
				<polygon class="st196" points="273.2,477.5 244.9,563.4 244.8,563.4 273.1,477.5 				"/>
				<polygon class="st197" points="273.3,477.5 245,563.4 244.9,563.4 273.2,477.5 				"/>
				<polygon class="st198" points="273.4,477.5 245.2,563.4 245,563.4 273.3,477.5 				"/>
				<polygon class="st199" points="273.6,477.5 245.3,563.4 245.2,563.4 273.4,477.5 				"/>
				<polygon class="st200" points="273.7,477.5 245.4,563.4 245.3,563.4 273.6,477.5 				"/>
				<polygon class="st201" points="273.8,477.5 245.5,563.4 245.4,563.4 273.7,477.5 				"/>
				<polygon class="st202" points="273.9,477.5 245.6,563.4 245.5,563.4 273.8,477.5 				"/>
				<polygon class="st203" points="274.1,477.5 245.8,563.4 245.6,563.4 273.9,477.5 				"/>
				<polygon class="st204" points="274.2,477.5 245.9,563.4 245.8,563.4 274.1,477.5 				"/>
				<polygon class="st205" points="274.3,477.5 246,563.4 245.9,563.4 274.2,477.5 				"/>
				<polygon class="st206" points="274.4,477.5 246.1,563.4 246,563.4 274.3,477.5 				"/>
				<polygon class="st207" points="274.5,477.5 246.3,563.4 246.1,563.4 274.4,477.5 				"/>
				<polygon class="st208" points="274.7,477.5 246.4,563.4 246.3,563.4 274.5,477.5 				"/>
				<polygon class="st209" points="274.8,477.5 246.5,563.4 246.4,563.4 274.7,477.5 				"/>
				<polygon class="st210" points="274.9,477.5 246.6,563.4 246.5,563.4 274.8,477.5 				"/>
				<polygon class="st211" points="275,477.5 246.7,563.4 246.6,563.4 274.9,477.5 				"/>
				<polygon class="st212" points="275.2,477.5 246.9,563.4 246.7,563.4 275,477.5 				"/>
				<polygon class="st213" points="275.3,477.5 247,563.4 246.9,563.4 275.2,477.5 				"/>
				<polygon class="st214" points="275.4,477.5 247.1,563.4 247,563.4 275.3,477.5 				"/>
				<polygon class="st215" points="275.5,477.5 247.2,563.4 247.1,563.4 275.4,477.5 				"/>
				<polygon class="st216" points="275.7,477.5 247.4,563.4 247.2,563.4 275.5,477.5 				"/>
				<polygon class="st217" points="275.8,477.5 247.5,563.4 247.4,563.4 275.7,477.5 				"/>
				<polygon class="st218" points="275.9,477.5 247.6,563.4 247.5,563.4 275.8,477.5 				"/>
				<polygon class="st219" points="276,477.5 247.7,563.4 247.6,563.4 275.9,477.5 				"/>
				<polygon class="st220" points="276.1,477.5 247.9,563.4 247.7,563.4 276,477.5 				"/>
				<polygon class="st221" points="276.3,477.5 248,563.4 247.9,563.4 276.1,477.5 				"/>
				<polygon class="st222" points="276.4,477.5 248.1,563.4 248,563.4 276.3,477.5 				"/>
				<polygon class="st223" points="276.5,477.5 248.2,563.4 248.1,563.4 276.4,477.5 				"/>
				<polygon class="st224" points="276.6,477.5 248.3,563.4 248.2,563.4 276.5,477.5 				"/>
				<polygon class="st225" points="276.8,477.5 248.5,563.4 248.3,563.4 276.6,477.5 				"/>
				<polygon class="st226" points="276.9,477.5 248.6,563.4 248.5,563.4 276.8,477.5 				"/>
				<polygon class="st227" points="277,477.5 248.7,563.4 248.6,563.4 276.9,477.5 				"/>
				<polygon class="st228" points="277.1,477.5 248.8,563.4 248.7,563.4 277,477.5 				"/>
				<polygon class="st229" points="277.2,477.5 277.2,477.5 249,563.4 248.8,563.4 277.1,477.5 				"/>
				<polygon class="st230" points="277.2,477.5 277.4,477.5 249.1,563.4 249,563.4 				"/>
				<polygon class="st231" points="277.4,477.5 277.5,477.5 249.2,563.4 249.1,563.4 				"/>
				<polygon class="st232" points="277.5,477.5 277.6,477.6 249.3,563.4 249.2,563.4 				"/>
				<polygon class="st233" points="277.6,477.6 277.7,477.6 249.4,563.4 249.3,563.4 				"/>
				<polygon class="st234" points="277.7,477.6 277.8,477.6 249.6,563.4 249.4,563.4 				"/>
				<polygon class="st235" points="277.8,477.6 277.9,477.7 249.7,563.4 249.6,563.4 				"/>
				<polygon class="st236" points="277.9,477.7 278,477.7 249.8,563.4 249.7,563.4 				"/>
				<polygon class="st237" points="278,477.7 278.1,477.8 249.9,563.4 249.8,563.4 				"/>
				<polygon class="st238" points="278.1,477.8 278.2,477.8 250.1,563.4 249.9,563.4 				"/>
				<polygon class="st239" points="278.2,477.8 278.3,477.8 250.2,563.4 250.1,563.4 				"/>
				<polygon class="st240" points="278.3,477.8 278.5,477.9 250.3,563.4 250.2,563.4 				"/>
				<polygon class="st241" points="278.5,477.9 278.6,477.9 250.4,563.4 250.3,563.4 				"/>
				<polygon class="st242" points="278.6,477.9 278.7,477.9 250.5,563.4 250.4,563.4 				"/>
				<polygon class="st243" points="278.7,477.9 278.8,478 250.7,563.4 250.5,563.4 				"/>
				<polygon class="st244" points="278.8,478 278.9,478 250.8,563.4 250.7,563.4 				"/>
				<polygon class="st245" points="278.9,478 279,478 250.9,563.4 250.8,563.4 				"/>
				<polygon class="st246" points="279,478 279.1,478.1 251,563.4 250.9,563.4 				"/>
				<polygon class="st247" points="279.1,478.1 279.2,478.1 251.2,563.4 251,563.4 				"/>
				<polygon class="st248" points="279.2,478.1 279.3,478.2 251.3,563.4 251.2,563.4 				"/>
				<polygon class="st249" points="279.3,478.2 279.5,478.2 251.4,563.4 251.3,563.4 				"/>
				<polygon class="st250" points="279.5,478.2 279.6,478.2 251.5,563.4 251.4,563.4 				"/>
				<polygon class="st251" points="279.6,478.2 279.7,478.3 251.7,563.4 251.5,563.4 				"/>
				<polygon class="st252" points="279.7,478.3 279.8,478.3 251.8,563.4 251.7,563.4 				"/>
				<polygon class="st253" points="279.8,478.3 279.9,478.3 251.9,563.4 251.8,563.4 				"/>
				<polygon class="st254" points="279.9,478.3 280,478.4 252,563.4 251.9,563.4 				"/>
				<polygon class="st255" points="280,478.4 280.1,478.4 252.1,563.4 252,563.4 				"/>
				<polygon class="st256" points="280.1,478.4 280.2,478.4 252.3,563.4 252.1,563.4 				"/>
				<polygon class="st257" points="280.2,478.4 280.3,478.5 252.4,563.4 252.3,563.4 				"/>
				<polygon class="st258" points="280.3,478.5 280.5,478.5 252.5,563.4 252.4,563.4 				"/>
				<polygon class="st259" points="280.5,478.5 280.6,478.6 252.6,563.4 252.5,563.4 				"/>
				<polygon class="st260" points="280.6,478.6 280.7,478.6 252.8,563.4 252.6,563.4 				"/>
				<polygon class="st261" points="280.7,478.6 280.8,478.6 252.9,563.4 252.8,563.4 				"/>
				<polygon class="st262" points="280.8,478.6 280.9,478.7 253,563.4 252.9,563.4 				"/>
				<polygon class="st263" points="280.9,478.7 281,478.7 253.1,563.4 253,563.4 				"/>
				<polygon class="st264" points="281,478.7 281.1,478.7 253.2,563.4 253.1,563.4 				"/>
				<polygon class="st265" points="281.1,478.7 281.2,478.8 253.4,563.4 253.2,563.4 				"/>
				<polygon class="st266" points="281.2,478.8 281.3,478.8 253.5,563.4 253.4,563.4 				"/>
				<polygon class="st267" points="281.3,478.8 281.4,478.8 253.6,563.4 253.5,563.4 				"/>
				<polygon class="st268" points="281.4,478.8 281.6,478.9 253.7,563.4 253.6,563.4 				"/>
				<polygon class="st269" points="281.6,478.9 281.7,478.9 253.9,563.4 253.7,563.4 				"/>
				<polygon class="st270" points="281.7,478.9 281.8,479 254,563.4 253.9,563.4 				"/>
				<polygon class="st271" points="281.8,479 281.9,479 254.1,563.4 254,563.4 				"/>
				<polygon class="st272" points="281.9,479 282,479 254.2,563.4 254.1,563.4 				"/>
				<polygon class="st273" points="282,479 282.1,479.1 254.4,563.4 254.2,563.4 				"/>
				<polygon class="st274" points="282.1,479.1 282.2,479.1 254.5,563.4 254.4,563.4 				"/>
				<polygon class="st275" points="282.2,479.1 282.3,479.1 254.6,563.4 254.5,563.4 				"/>
				<polygon class="st276" points="282.3,479.1 282.4,479.2 254.7,563.4 254.6,563.4 				"/>
				<polygon class="st277" points="282.4,479.2 282.6,479.2 254.8,563.4 254.7,563.4 				"/>
				<polygon class="st278" points="282.6,479.2 282.7,479.2 255,563.4 254.8,563.4 				"/>
				<polygon class="st279" points="282.7,479.2 282.8,479.3 255.1,563.4 255,563.4 				"/>
				<polygon class="st280" points="282.8,479.3 282.9,479.3 255.2,563.4 255.1,563.4 				"/>
				<polygon class="st281" points="282.9,479.3 283,479.4 255.3,563.4 255.2,563.4 				"/>
				<polygon class="st282" points="283,479.4 283.1,479.4 255.5,563.4 255.3,563.4 				"/>
				<polygon class="st283" points="283.1,479.4 283.2,479.4 255.6,563.4 255.5,563.4 				"/>
				<polygon class="st284" points="283.2,479.4 283.3,479.5 255.7,563.4 255.6,563.4 				"/>
				<polygon class="st285" points="283.3,479.5 283.4,479.5 255.8,563.4 255.7,563.4 				"/>
				<polygon class="st286" points="283.4,479.5 283.5,479.5 255.9,563.4 255.8,563.4 				"/>
				<polygon class="st287" points="283.5,479.5 283.7,479.6 256.1,563.4 255.9,563.4 				"/>
				<polygon class="st288" points="283.7,479.6 283.8,479.6 256.2,563.4 256.1,563.4 				"/>
				<polygon class="st289" points="283.8,479.6 283.9,479.6 256.3,563.4 256.2,563.4 				"/>
				<polygon class="st290" points="283.9,479.6 284,479.7 256.4,563.4 256.3,563.4 				"/>
				<polygon class="st291" points="284,479.7 284.1,479.7 256.6,563.4 256.4,563.4 				"/>
				<polygon class="st292" points="284.1,479.7 284.2,479.8 256.7,563.4 256.6,563.4 				"/>
				<polygon class="st293" points="284.2,479.8 284.3,479.8 284.3,479.8 256.8,563.4 256.7,563.4 				"/>
				<polygon class="st294" points="284.3,480.2 256.9,563.4 256.8,563.4 284.3,479.8 				"/>
				<polygon class="st295" points="284.3,480.6 257,563.4 256.9,563.4 284.3,480.2 				"/>
				<polygon class="st296" points="284.3,480.9 257.2,563.4 257,563.4 284.3,480.6 				"/>
				<polygon class="st297" points="284.3,481.3 257.3,563.4 257.2,563.4 284.3,480.9 				"/>
				<polygon class="st298" points="284.3,481.7 257.4,563.4 257.3,563.4 284.3,481.3 				"/>
				<polygon class="st299" points="284.3,482.1 257.5,563.4 257.4,563.4 284.3,481.7 				"/>
				<polygon class="st300" points="284.3,482.4 257.7,563.4 257.5,563.4 284.3,482.1 				"/>
				<polygon class="st301" points="284.3,482.8 257.8,563.4 257.7,563.4 284.3,482.4 				"/>
				<polygon class="st302" points="284.3,483.2 257.9,563.4 257.8,563.4 284.3,482.8 				"/>
				<polygon class="st303" points="284.3,483.5 258,563.4 257.9,563.4 284.3,483.2 				"/>
				<polygon class="st304" points="284.3,483.9 258.2,563.4 258,563.4 284.3,483.5 				"/>
				<polygon class="st305" points="284.3,484.3 258.3,563.4 258.2,563.4 284.3,483.9 				"/>
				<polygon class="st306" points="284.3,484.7 258.4,563.4 258.3,563.4 284.3,484.3 				"/>
				<polygon class="st307" points="284.3,485 258.5,563.4 258.4,563.4 284.3,484.7 				"/>
				<polygon class="st308" points="284.3,485.4 258.6,563.4 258.5,563.4 284.3,485 				"/>
				<polygon class="st308" points="258.6,563.4 284.3,485.4 284.3,563.4 				"/>
			</g>
		</g>
		<defs>
			<filter id="Adobe_OpacityMaskFilter_2_" filterUnits="userSpaceOnUse" x="230.9" y="580" width="83.6" height="47.5">
				<feFlood  style="flood-color:white;flood-opacity:1" result="back"/>
				<feBlend  in="SourceGraphic" in2="back" mode="normal"/>
			</filter>
		</defs>
		<mask maskUnits="userSpaceOnUse" x="230.9" y="580" width="83.6" height="47.5" id="SVGID_9_">
			<g class="st309">
				<defs>
					<filter id="Adobe_OpacityMaskFilter_3_" filterUnits="userSpaceOnUse" x="235" y="588" width="79.4" height="31.6">
						<feFlood  style="flood-color:white;flood-opacity:1" result="back"/>
						<feBlend  in="SourceGraphic" in2="back" mode="normal"/>
					</filter>
				</defs>
				<mask maskUnits="userSpaceOnUse" x="235" y="588" width="79.4" height="31.6" id="SVGID_9_">
					<g class="st310">
					</g>
				</mask>
				<radialGradient id="SVGID_10_" cx="270.5106" cy="593.3207" r="39.6481" gradientUnits="userSpaceOnUse">
					<stop  offset="7.000000e-08" style="stop-color:#FFFFFF"/>
					<stop  offset="1" style="stop-color:#000000"/>
				</radialGradient>
				<path class="st311" d="M314.4,592.4c-4.5,1.1-9.3,1.8-14.2,1.8c-0.2,0-0.4,0-0.5,0c-8.1,6-18.1,9.6-28.9,9.6
					c-14.1,0-26.9-6.1-35.8-15.7c15.3,19.2,38.8,31.6,65.2,31.6c2.1,0,4.2-0.1,6.3-0.3L314.4,592.4z"/>
			</g>
		</mask>
		<g>
			<g>
				<defs>
					<path id="SVGID_11_" d="M314.4,592.4c-4.5,1.1-9.3,1.8-14.2,1.8c-0.2,0-0.4,0-0.5,0c-8.1,6-18.1,9.6-28.9,9.6
						c-14.1,0-26.9-6.1-35.8-15.7c15.3,19.2,38.8,31.6,65.2,31.6c2.1,0,4.2-0.1,6.3-0.3L314.4,592.4z"/>
				</defs>
				<clipPath id="SVGID_12_">
					<use xlink:href="#SVGID_11_"  style="overflow:visible;"/>
				</clipPath>
				<rect x="235" y="588" class="st312" width="79.4" height="31.6"/>
				<path class="st312" d="M310.2,593.3c0,10.9-4.4,20.9-11.6,28v-0.8h-56.1v0.8c-7.2-7.2-11.6-17.1-11.6-28h3.2V587h75.3v-1.6
					C309.9,587.9,310.2,590.6,310.2,593.3z"/>
				<path class="st313" d="M310,593.3c0,10.9-4.4,20.8-11.6,27.9v-0.7h-55.8v0.7c-7.1-7.1-11.6-17-11.6-27.9h3V587h75.1v-1.6
					C309.7,587.9,310,590.6,310,593.3z"/>
				<path class="st314" d="M309.8,593.3c0,10.8-4.4,20.7-11.5,27.8v-0.5h-55.6v0.5c-7.1-7.1-11.5-16.9-11.5-27.8h2.8V587H309v-1.6
					C309.5,588,309.8,590.6,309.8,593.3z"/>
				<path class="st315" d="M309.6,593.3c0,10.8-4.4,20.6-11.5,27.7v-0.4h-55.3v0.4c-7.1-7.1-11.5-16.9-11.5-27.7h2.6V587h74.8v-1.5
					C309.3,588,309.6,590.6,309.6,593.3z"/>
				<path class="st316" d="M309.4,593.3c0,10.7-4.4,20.5-11.4,27.5v-0.3h-55v0.3c-7-7-11.4-16.8-11.4-27.5h2.5V587h74.6v-1.5
					C309.2,588,309.4,590.6,309.4,593.3z"/>
				<path class="st317" d="M309.3,593.3c0,10.7-4.3,20.4-11.3,27.4v-0.2h-54.8v0.2c-7-7-11.3-16.7-11.3-27.4h2.3V587h74.4v-1.5
					C309,588,309.3,590.6,309.3,593.3z"/>
				<path class="st318" d="M309.1,593.3c0,10.6-4.3,20.3-11.3,27.3v0h-54.5v0c-7-7-11.3-16.6-11.3-27.3h2.1V587h74.2v-1.4
					C308.8,588.1,309.1,590.7,309.1,593.3z"/>
				<path class="st319" d="M308.9,593.3c0,10.6-4.3,20.2-11.2,27.1c-1.7,1.7-3.6,3.3-5.7,4.7v-4.6h-42.9v4.6c-2-1.4-3.9-3-5.7-4.7
					c-6.9-6.9-11.2-16.5-11.2-27.1h1.9V587h74.1v-1.4C308.6,588.1,308.9,590.7,308.9,593.3z"/>
				<path class="st320" d="M308.7,593.3c0,10.5-4.3,20.1-11.2,27c-1.7,1.7-3.6,3.3-5.7,4.7v-4.4h-42.7v4.4c-2-1.4-3.9-2.9-5.7-4.7
					c-6.9-6.9-11.2-16.5-11.2-27h1.7V587h73.9v-1.4C308.4,588.1,308.7,590.7,308.7,593.3z"/>
				<path class="st321" d="M308.5,593.3c0,10.5-4.3,20-11.1,26.9c-1.7,1.7-3.6,3.3-5.6,4.6v-4.3h-42.5v4.3c-2-1.4-3.9-2.9-5.6-4.6
					c-6.9-6.9-11.1-16.4-11.1-26.9h1.6V587h73.7v-1.3C308.3,588.1,308.5,590.7,308.5,593.3z"/>
				<path class="st322" d="M308.3,593.3c0,10.4-4.2,19.9-11.1,26.8c-1.7,1.7-3.6,3.3-5.6,4.6v-4.1h-42.3v4.1c-2-1.4-3.9-2.9-5.6-4.6
					c-6.8-6.8-11.1-16.3-11.1-26.8h1.4V587h73.5v-1.3C308.1,588.2,308.3,590.7,308.3,593.3z"/>
				<path class="st323" d="M308.2,593.3c0,10.4-4.2,19.8-11,26.6c-1.7,1.7-3.6,3.2-5.6,4.6v-4h-42.1v4c-2-1.4-3.9-2.9-5.6-4.6
					c-6.8-6.8-11-16.2-11-26.6h1.2V587h73.4v-1.2C307.9,588.2,308.2,590.7,308.2,593.3z"/>
				<path class="st324" d="M308,593.3c0,10.3-4.2,19.7-11,26.5c-1.7,1.7-3.6,3.2-5.5,4.6v-3.8h-41.9v3.8c-2-1.3-3.9-2.9-5.5-4.6
					c-6.8-6.8-11-16.2-11-26.5h1V587h73.2v-1.2C307.7,588.2,308,590.7,308,593.3z"/>
				<path class="st325" d="M307.8,593.3c0,10.3-4.2,19.6-10.9,26.4c-1.7,1.7-3.5,3.2-5.5,4.6v-3.7h-41.7v3.7c-2-1.3-3.8-2.9-5.5-4.6
					c-6.7-6.7-10.9-16.1-10.9-26.4h0.8V587h73v-1.2C307.5,588.2,307.8,590.7,307.8,593.3z"/>
				<path class="st326" d="M307.6,593.3c0,10.2-4.2,19.5-10.9,26.2c-3.4,3.4-7.4,6.1-11.8,8v-7h-28.9v7c-4.4-1.9-8.4-4.6-11.8-8
					c-6.7-6.7-10.9-16-10.9-26.2c0-2.6,0.3-5.1,0.8-7.5v1.1h72.7v-1.1C307.4,588.3,307.6,590.8,307.6,593.3z"/>
				<path class="st327" d="M307.4,593.3c0,10.2-4.1,19.4-10.8,26.1c-3.3,3.3-7.3,6-11.7,7.9v-6.8h-28.8v6.8
					c-4.4-1.9-8.4-4.6-11.7-7.9c-6.7-6.7-10.8-15.9-10.8-26.1c0-2.5,0.3-5,0.8-7.4v1.1h72.4v-1.1
					C307.2,588.3,307.4,590.8,307.4,593.3z"/>
				<path class="st328" d="M307.3,593.3c0,10.1-4.1,19.3-10.8,26c-3.3,3.3-7.3,6-11.7,7.9v-6.6h-28.6v6.6c-4.4-1.9-8.4-4.6-11.7-7.9
					c-6.7-6.7-10.8-15.8-10.8-26c0-2.5,0.3-5,0.7-7.4v1.1h72v-1.1C307,588.3,307.3,590.8,307.3,593.3z"/>
				<path class="st329" d="M307.1,593.3c0,10.1-4.1,19.2-10.7,25.9c-3.3,3.3-7.2,6-11.6,7.8v-6.5h-28.5v6.5
					c-4.4-1.9-8.3-4.5-11.6-7.8c-6.6-6.6-10.7-15.8-10.7-25.9c0-2.5,0.3-5,0.7-7.4v1h71.7v-1C306.8,588.3,307.1,590.8,307.1,593.3z"
					/>
				<path class="st330" d="M306.9,593.3c0,10-4.1,19.1-10.7,25.7c-3.3,3.3-7.2,6-11.6,7.8v-6.3h-28.3v6.3c-4.4-1.8-8.3-4.5-11.6-7.8
					c-6.6-6.6-10.7-15.7-10.7-25.7c0-2.5,0.3-5,0.7-7.3v1h71.3v-1C306.6,588.4,306.9,590.8,306.9,593.3z"/>
				<path class="st331" d="M306.7,593.3c0,10-4.1,19.1-10.6,25.6c-3.3,3.3-7.2,5.9-11.5,7.8v-6.1h-28.2v6.1
					c-4.3-1.8-8.2-4.5-11.5-7.8c-6.6-6.6-10.6-15.6-10.6-25.6c0-2.5,0.3-4.9,0.7-7.3v1H306v-1C306.5,588.4,306.7,590.8,306.7,593.3z
					"/>
				<path class="st332" d="M306.5,593.3c0,9.9-4,19-10.6,25.5c-3.3,3.3-7.1,5.9-11.5,7.7v-6h-28v6c-4.3-1.8-8.2-4.5-11.5-7.7
					c-6.5-6.5-10.6-15.5-10.6-25.5c0-2.5,0.3-4.9,0.7-7.3v0.9h70.6v-0.9C306.3,588.4,306.5,590.8,306.5,593.3z"/>
				<path class="st333" d="M306.4,593.3c0,9.9-4,18.9-10.5,25.3c-3.2,3.2-7.1,5.9-11.4,7.7v-5.8h-27.9v5.8
					c-4.3-1.8-8.2-4.4-11.4-7.7c-6.5-6.5-10.5-15.4-10.5-25.3c0-2.5,0.3-4.9,0.7-7.2v0.9h70.2v-0.9
					C306.1,588.4,306.4,590.8,306.4,593.3z"/>
				<path class="st334" d="M306.2,593.3c0,9.8-4,18.8-10.4,25.2c-3.2,3.2-7.1,5.8-11.3,7.6v-5.6h-27.8v5.6
					c-4.3-1.8-8.1-4.4-11.3-7.6c-6.5-6.5-10.4-15.4-10.4-25.2c0-2.5,0.2-4.9,0.7-7.2v0.8h69.9v-0.8
					C305.9,588.5,306.2,590.9,306.2,593.3z"/>
				<path class="st335" d="M306,593.3c0,9.8-4,18.7-10.4,25.1c-3.2,3.2-7,5.8-11.3,7.6v-5.5h-27.6v5.5c-4.2-1.8-8.1-4.4-11.3-7.6
					C239,612,235,603.1,235,593.3c0-2.4,0.2-4.8,0.7-7.2v0.8h69.5v-0.8C305.7,588.5,306,590.9,306,593.3z"/>
				<path class="st336" d="M305.8,593.3c0,9.7-4,18.6-10.3,25c-3.2,3.2-7,5.8-11.2,7.6v-5.3h-27.5v5.3c-4.2-1.8-8-4.4-11.2-7.6
					c-6.4-6.4-10.3-15.2-10.3-25c0-2.4,0.2-4.8,0.7-7.1v0.8h69.2v-0.8C305.6,588.5,305.8,590.9,305.8,593.3z"/>
				<path class="st337" d="M305.6,593.3c0,9.7-3.9,18.5-10.3,24.8c-3.2,3.2-7,5.7-11.2,7.5v-5.1h-27.3v5.1c-4.2-1.8-8-4.3-11.2-7.5
					c-6.4-6.4-10.3-15.1-10.3-24.8c0-2.4,0.2-4.8,0.7-7.1v0.7h68.8v-0.7C305.4,588.5,305.6,590.9,305.6,593.3z"/>
				<path class="st338" d="M305.5,593.3c0,9.6-3.9,18.4-10.2,24.7c-3.2,3.2-6.9,5.7-11.1,7.5v-5h-27.2v5c-4.2-1.8-7.9-4.3-11.1-7.5
					c-6.3-6.3-10.2-15.1-10.2-24.7c0-2.4,0.2-4.8,0.7-7v0.7h68.5v-0.7C305.2,588.6,305.5,590.9,305.5,593.3z"/>
				<path class="st339" d="M305.3,593.3c0,9.6-3.9,18.3-10.2,24.6c-3.1,3.1-6.9,5.7-11,7.4v-4.8H257v4.8c-4.2-1.8-7.9-4.3-11-7.4
					c-6.3-6.3-10.2-15-10.2-24.6c0-2.4,0.2-4.7,0.7-7v0.7h68.1v-0.7C305,588.6,305.3,590.9,305.3,593.3z"/>
				<path class="st340" d="M305.1,593.3c0,9.5-3.9,18.2-10.1,24.5c-3.1,3.1-6.9,5.7-11,7.4v-4.6h-26.9v4.6c-4.1-1.7-7.9-4.3-11-7.4
					c-6.3-6.3-10.1-14.9-10.1-24.5c0-2.4,0.2-4.7,0.7-7v0.6h67.8v-0.6C304.8,588.6,305.1,590.9,305.1,593.3z"/>
				<path class="st341" d="M304.9,593.3c0,9.5-3.9,18.1-10.1,24.3c-3.1,3.1-6.8,5.6-10.9,7.4v-4.5h-26.8v4.5
					c-4.1-1.7-7.8-4.3-10.9-7.4c-6.2-6.2-10.1-14.8-10.1-24.3c0-2.4,0.2-4.7,0.7-6.9v0.6h67.4v-0.6
					C304.7,588.6,304.9,590.9,304.9,593.3z"/>
				<path class="st342" d="M304.7,593.3c0,18.9-15.3,34.2-34.2,34.2s-34.2-15.3-34.2-34.2c0-4.7,1-9.2,2.7-13.3v7H302v-7
					C303.8,584.1,304.7,588.6,304.7,593.3z"/>
				<path class="st343" d="M304.5,593.3c0,18.8-15.2,34-34,34s-34-15.2-34-34c0-4.7,1-9.2,2.7-13.2v6.9h62.7v-6.9
					C303.6,584.1,304.5,588.6,304.5,593.3z"/>
				<path class="st344" d="M304.4,593.3c0,18.7-15.2,33.9-33.9,33.9s-33.9-15.2-33.9-33.9c0-4.7,0.9-9.1,2.7-13.2v6.8h62.4v-6.8
					C303.4,584.2,304.4,588.6,304.4,593.3z"/>
				<path class="st345" d="M304.2,593.3c0,18.6-15.1,33.7-33.7,33.7s-33.7-15.1-33.7-33.7c0-4.6,0.9-9.1,2.6-13.1v6.8h62.1v-6.8
					C303.2,584.2,304.2,588.7,304.2,593.3z"/>
				<path class="st346" d="M304,593.3c0,18.5-15,33.5-33.5,33.5s-33.5-15-33.5-33.5c0-4.6,0.9-9,2.6-13v6.7h61.7v-6.7
					C303.1,584.3,304,588.7,304,593.3z"/>
				<path class="st347" d="M303.8,593.3c0,18.4-14.9,33.3-33.3,33.3s-33.3-14.9-33.3-33.3c0-4.6,0.9-9,2.6-13v6.6h61.4v-6.6
					C302.9,584.3,303.8,588.7,303.8,593.3z"/>
				<path class="st348" d="M303.6,593.3c0,18.3-14.8,33.1-33.1,33.1s-33.1-14.8-33.1-33.1c0-4.6,0.9-8.9,2.6-12.9v6.6H301v-6.6
					C302.7,584.4,303.6,588.7,303.6,593.3z"/>
				<path class="st349" d="M303.5,593.3c0,18.2-14.8,32.9-32.9,32.9s-32.9-14.8-32.9-32.9c0-4.5,0.9-8.9,2.6-12.8v6.5h60.7v-6.5
					C302.5,584.4,303.5,588.8,303.5,593.3z"/>
				<path class="st350" d="M303.3,593.3c0,18.1-14.7,32.8-32.8,32.8s-32.8-14.7-32.8-32.8c0-4.5,0.9-8.8,2.6-12.8v6.4h60.4v-6.4
					C302.4,584.5,303.3,588.8,303.3,593.3z"/>
				<path class="st351" d="M303.1,593.3c0,18-14.6,32.6-32.6,32.6s-32.6-14.6-32.6-32.6c0-4.5,0.9-8.8,2.6-12.7v6.3h60.1v-6.3
					C302.2,584.5,303.1,588.8,303.1,593.3z"/>
				<path class="st352" d="M302.9,593.3c0,17.9-14.5,32.4-32.4,32.4s-32.4-14.5-32.4-32.4c0-4.5,0.9-8.7,2.5-12.6v6.3h59.7v-6.3
					C302,584.6,302.9,588.8,302.9,593.3z"/>
				<path class="st353" d="M302.7,593.3c0,17.8-14.4,32.2-32.2,32.2s-32.2-14.4-32.2-32.2c0-4.4,0.9-8.7,2.5-12.5v6.2h59.4v-6.2
					C301.8,584.6,302.7,588.9,302.7,593.3z"/>
				<path class="st354" d="M302.6,593.3c0,17.7-14.3,32-32,32s-32-14.3-32-32c0-4.4,0.9-8.6,2.5-12.5v6.1H300v-6.1
					C301.7,584.7,302.6,588.9,302.6,593.3z"/>
				<path class="st355" d="M302.4,593.3c0,17.6-14.3,31.9-31.9,31.9s-31.9-14.3-31.9-31.9c0-4.4,0.9-8.6,2.5-12.4v6.1h58.7v-6.1
					C301.5,584.7,302.4,588.9,302.4,593.3z"/>
				<path class="st356" d="M302.2,593.3c0,17.5-14.2,31.7-31.7,31.7s-31.7-14.2-31.7-31.7c0-4.4,0.9-8.5,2.5-12.3v6h58.4v-6
					C301.3,584.8,302.2,588.9,302.2,593.3z"/>
				<path class="st357" d="M302,593.3c0,17.4-14.1,31.5-31.5,31.5S239,610.7,239,593.3c0-4.3,0.9-8.5,2.5-12.3v5.9h58.1v-5.9
					C301.1,584.8,302,589,302,593.3z"/>
				<path class="st358" d="M301.8,593.3c0,17.3-14,31.3-31.3,31.3s-31.3-14-31.3-31.3c0-4.3,0.9-8.4,2.5-12.2v5.8h57.7v-5.8
					C301,584.9,301.8,589,301.8,593.3z"/>
				<path class="st359" d="M301.6,593.3c0,17.2-13.9,31.1-31.1,31.1s-31.1-13.9-31.1-31.1c0-4.3,0.9-8.4,2.4-12.1v5.8h57.4v-5.8
					C300.8,584.9,301.6,589,301.6,593.3z"/>
				<path class="st360" d="M301.5,593.3c0,17.1-13.9,31-31,31s-31-13.9-31-31c0-4.3,0.9-8.3,2.4-12.1v5.7H299v-5.7
					C300.6,585,301.5,589,301.5,593.3z"/>
				<path class="st361" d="M301.3,593.3c0,17-13.8,30.8-30.8,30.8s-30.8-13.8-30.8-30.8c0-4.2,0.9-8.3,2.4-12v5.6h56.7v-5.6
					C300.4,585,301.3,589.1,301.3,593.3z"/>
				<path class="st362" d="M301.1,593.3c0,16.9-13.7,30.6-30.6,30.6s-30.6-13.7-30.6-30.6c0-4.2,0.9-8.2,2.4-11.9v5.6h56.4v-5.6
					C300.3,585.1,301.1,589.1,301.1,593.3z"/>
				<path class="st363" d="M300.9,593.3c0,16.8-13.6,30.4-30.4,30.4s-30.4-13.6-30.4-30.4c0-4.2,0.9-8.2,2.4-11.8v5.5h56v-5.5
					C300.1,585.1,300.9,589.1,300.9,593.3z"/>
				<path class="st364" d="M300.7,593.3c0,16.7-13.5,30.2-30.2,30.2s-30.2-13.5-30.2-30.2c0-4.2,0.8-8.2,2.4-11.8v5.4h55.7v-5.4
					C299.9,585.2,300.7,589.1,300.7,593.3z"/>
				<path class="st365" d="M300.6,593.3c0,16.6-13.5,30.1-30.1,30.1s-30.1-13.5-30.1-30.1c0-4.1,0.8-8.1,2.4-11.7v5.4h55.4v-5.4
					C299.7,585.2,300.6,589.2,300.6,593.3z"/>
				<path class="st366" d="M300.4,593.3c0,16.5-13.4,29.9-29.9,29.9s-29.9-13.4-29.9-29.9c0-4.1,0.8-8.1,2.3-11.6v5.3h55v-5.3
					C299.5,585.3,300.4,589.2,300.4,593.3z"/>
				<path class="st367" d="M300.2,593.3c0,16.4-13.3,29.7-29.7,29.7s-29.7-13.3-29.7-29.7c0-4.1,0.8-8,2.3-11.6v5.2h54.7v-5.2
					C299.4,585.3,300.2,589.2,300.2,593.3z"/>
				<path class="st368" d="M300,593.3c0,16.3-13.2,29.5-29.5,29.5S241,609.6,241,593.3c0-4.1,0.8-8,2.3-11.5v5.1h54.4v-5.1
					C299.2,585.4,300,589.2,300,593.3z"/>
				<path class="st369" d="M299.8,593.3c0,16.2-13.1,29.3-29.3,29.3s-29.3-13.1-29.3-29.3c0-4,0.8-7.9,2.3-11.4v5.1h54v-5.1
					C299,585.4,299.8,589.3,299.8,593.3z"/>
				<path class="st370" d="M299.7,593.3c0,16.1-13,29.1-29.1,29.1s-29.1-13-29.1-29.1c0-4,0.8-7.9,2.3-11.3v5h53.7v-5
					C298.8,585.5,299.7,589.3,299.7,593.3z"/>
				<path class="st371" d="M299.5,593.3c0,16-13,29-29,29s-29-13-29-29c0-4,0.8-7.8,2.3-11.3v4.9h53.4V582
					C298.7,585.5,299.5,589.3,299.5,593.3z"/>
				<path class="st372" d="M299.3,593.3c0,15.9-12.9,28.8-28.8,28.8s-28.8-12.9-28.8-28.8c0-4,0.8-7.8,2.3-11.2v4.9h53v-4.9
					C298.5,585.6,299.3,589.3,299.3,593.3z"/>
				<path class="st373" d="M299.1,593.3c0,15.8-12.8,28.6-28.6,28.6s-28.6-12.8-28.6-28.6c0-3.9,0.8-7.7,2.2-11.1v4.8h52.7v-4.8
					C298.3,585.6,299.1,589.4,299.1,593.3z"/>
				<path class="st374" d="M298.9,593.3c0,15.7-12.7,28.4-28.4,28.4s-28.4-12.7-28.4-28.4c0-3.9,0.8-7.7,2.2-11.1v4.7h52.4v-4.7
					C298.1,585.7,298.9,589.4,298.9,593.3z"/>
				<path class="st375" d="M298.8,593.3c0,15.6-12.6,28.2-28.2,28.2s-28.2-12.6-28.2-28.2c0-3.9,0.8-7.6,2.2-11v4.6h52v-4.6
					C298,585.7,298.8,589.4,298.8,593.3z"/>
				<path class="st376" d="M298.6,593.3c0,15.5-12.6,28.1-28.1,28.1s-28.1-12.6-28.1-28.1c0-3.9,0.8-7.6,2.2-10.9v4.6h51.7v-4.6
					C297.8,585.8,298.6,589.4,298.6,593.3z"/>
				<path class="st377" d="M298.4,593.3c0,15.4-12.5,27.9-27.9,27.9s-27.9-12.5-27.9-27.9c0-3.8,0.8-7.5,2.2-10.9v4.5h51.4v-4.5
					C297.6,585.8,298.4,589.5,298.4,593.3z"/>
				<path class="st378" d="M298.2,593.3c0,15.3-12.4,27.7-27.7,27.7s-27.7-12.4-27.7-27.7c0-3.8,0.8-7.5,2.2-10.8v4.4h51v-4.4
					C297.4,585.9,298.2,589.5,298.2,593.3z"/>
				<path class="st379" d="M298,593.3c0,15.2-12.3,27.5-27.5,27.5c-15.2,0-27.5-12.3-27.5-27.5c0-3.8,0.8-7.4,2.2-10.7v4.4h50.7
					v-4.4C297.3,585.9,298,589.5,298,593.3z"/>
				<path class="st380" d="M297.8,593.3c0,15.1-12.2,27.3-27.3,27.3s-27.3-12.2-27.3-27.3c0-3.8,0.8-7.4,2.1-10.6v4.3h50.4v-4.3
					C297.1,586,297.8,589.5,297.8,593.3z"/>
				<path class="st381" d="M297.7,593.3c0,15-12.2,27.2-27.2,27.2s-27.2-12.2-27.2-27.2c0-3.7,0.8-7.3,2.1-10.6v4.2h50v-4.2
					C296.9,586,297.7,589.6,297.7,593.3z"/>
				<path class="st382" d="M297.5,593.3c0,14.9-12.1,27-27,27c-14.9,0-27-12.1-27-27c0-3.7,0.8-7.3,2.1-10.5v4.2h49.7v-4.2
					C296.7,586,297.5,589.6,297.5,593.3z"/>
				<path class="st383" d="M297.3,593.3c0,14.8-12,26.8-26.8,26.8s-26.8-12-26.8-26.8c0-3.7,0.7-7.2,2.1-10.4v4.1h49.4v-4.1
					C296.6,586.1,297.3,589.6,297.3,593.3z"/>
				<path class="st384" d="M297.1,593.3c0,14.7-11.9,26.6-26.6,26.6c-14.7,0-26.6-11.9-26.6-26.6c0-3.7,0.7-7.2,2.1-10.4v4h49v-4
					C296.4,586.1,297.1,589.6,297.1,593.3z"/>
				<path class="st385" d="M296.9,593.3c0,14.6-11.8,26.4-26.4,26.4c-14.6,0-26.4-11.8-26.4-26.4c0-3.6,0.7-7.1,2.1-10.3v3.9h48.7
					V583C296.2,586.2,296.9,589.7,296.9,593.3z"/>
				<path class="st386" d="M296.8,593.3c0,14.5-11.8,26.3-26.3,26.3s-26.3-11.8-26.3-26.3c0-3.6,0.7-7.1,2.1-10.2v3.9h48.4v-3.9
					C296,586.2,296.8,589.7,296.8,593.3z"/>
				<path class="st387" d="M296.6,593.3c0,14.4-11.7,26.1-26.1,26.1c-14.4,0-26.1-11.7-26.1-26.1c0-3.6,0.7-7,2-10.1v3.8h48v-3.8
					C295.9,586.3,296.6,589.7,296.6,593.3z"/>
				<path class="st388" d="M296.4,593.3c0,14.3-11.6,25.9-25.9,25.9s-25.9-11.6-25.9-25.9c0-3.6,0.7-7,2-10.1v3.7h47.7v-3.7
					C295.7,586.3,296.4,589.7,296.4,593.3z"/>
				<path class="st389" d="M296.2,593.3c0,14.2-11.5,25.7-25.7,25.7s-25.7-11.5-25.7-25.7c0-3.5,0.7-6.9,2-10v3.7h47.4v-3.7
					C295.5,586.4,296.2,589.8,296.2,593.3z"/>
				<path class="st390" d="M296,593.3c0,14.1-11.4,25.5-25.5,25.5c-14.1,0-25.5-11.4-25.5-25.5c0-3.5,0.7-6.9,2-9.9v3.6h47v-3.6
					C295.3,586.4,296,589.8,296,593.3z"/>
				<path class="st391" d="M295.9,593.3c0,14-11.3,25.3-25.3,25.3s-25.3-11.3-25.3-25.3c0-3.5,0.7-6.8,2-9.9v3.5h46.7v-3.5
					C295.1,586.5,295.9,589.8,295.9,593.3z"/>
				<path class="st392" d="M295.7,593.3c0,13.9-11.3,25.2-25.2,25.2s-25.2-11.3-25.2-25.2c0-3.5,0.7-6.8,2-9.8v3.4h46.4v-3.4
					C295,586.5,295.7,589.8,295.7,593.3z"/>
				<path class="st393" d="M295.5,593.3c0,13.8-11.2,25-25,25c-13.8,0-25-11.2-25-25c0-3.4,0.7-6.7,2-9.7v3.4h46v-3.4
					C294.8,586.6,295.5,589.9,295.5,593.3z"/>
				<path class="st394" d="M295.3,593.3c0,13.7-11.1,24.8-24.8,24.8s-24.8-11.1-24.8-24.8c0-3.4,0.7-6.7,1.9-9.7v3.3h45.7v-3.3
					C294.6,586.6,295.3,589.9,295.3,593.3z"/>
				<path class="st395" d="M295.1,593.3c0,13.6-11,24.6-24.6,24.6s-24.6-11-24.6-24.6c0-3.4,0.7-6.6,1.9-9.6v3.2h45.4v-3.2
					C294.4,586.7,295.1,589.9,295.1,593.3z"/>
				<path class="st396" d="M295,593.3c0,13.5-10.9,24.4-24.4,24.4s-24.4-10.9-24.4-24.4c0-3.4,0.7-6.6,1.9-9.5v3.2h45v-3.2
					C294.3,586.7,295,589.9,295,593.3z"/>
				<path class="st397" d="M294.8,593.3c0,13.4-10.9,24.3-24.3,24.3s-24.3-10.9-24.3-24.3c0-3.3,0.7-6.5,1.9-9.4v3.1h44.7v-3.1
					C294.1,586.8,294.8,590,294.8,593.3z"/>
				<path class="st398" d="M294.6,593.3c0,13.3-10.8,24.1-24.1,24.1s-24.1-10.8-24.1-24.1c0-3.3,0.7-6.5,1.9-9.4v3h44.4v-3
					C293.9,586.8,294.6,590,294.6,593.3z"/>
				<path class="st399" d="M294.4,593.3c0,13.2-10.7,23.9-23.9,23.9s-23.9-10.7-23.9-23.9c0-3.3,0.7-6.4,1.9-9.3v3h44v-3
					C293.7,586.9,294.4,590,294.4,593.3z"/>
				<path class="st400" d="M294.2,593.3c0,13.1-10.6,23.7-23.7,23.7s-23.7-10.6-23.7-23.7c0-3.3,0.7-6.4,1.9-9.2v2.9h43.7v-2.9
					C293.6,586.9,294.2,590,294.2,593.3z"/>
				<path class="st401" d="M294,593.3c0,13-10.5,23.5-23.5,23.5c-13,0-23.5-10.5-23.5-23.5c0-3.2,0.7-6.3,1.8-9.2v2.8h43.4v-2.8
					C293.4,587,294,590.1,294,593.3z"/>
				<path class="st402" d="M293.9,593.3c0,12.9-10.5,23.4-23.4,23.4s-23.4-10.5-23.4-23.4c0-3.2,0.7-6.3,1.8-9.1v2.7h43v-2.7
					C293.2,587,293.9,590.1,293.9,593.3z"/>
				<path class="st403" d="M293.7,593.3c0,12.8-10.4,23.2-23.2,23.2s-23.2-10.4-23.2-23.2c0-3.2,0.6-6.2,1.8-9v2.7h42.7v-2.7
					C293,587.1,293.7,590.1,293.7,593.3z"/>
				<path class="st404" d="M293.5,593.3c0,12.7-10.3,23-23,23c-12.7,0-23-10.3-23-23c0-3.2,0.6-6.2,1.8-8.9v2.6h42.4v-2.6
					C292.9,587.1,293.5,590.1,293.5,593.3z"/>
				<path class="st405" d="M293.3,593.3c0,12.6-10.2,22.8-22.8,22.8s-22.8-10.2-22.8-22.8c0-3.1,0.6-6.2,1.8-8.9v2.5h42v-2.5
					C292.7,587.2,293.3,590.2,293.3,593.3z"/>
				<path class="st406" d="M293.1,593.3c0,12.5-10.1,22.6-22.6,22.6s-22.6-10.1-22.6-22.6c0-3.1,0.6-6.1,1.8-8.8v2.5h41.7v-2.5
					C292.5,587.2,293.1,590.2,293.1,593.3z"/>
				<path class="st407" d="M293,593.3c0,12.4-10.1,22.4-22.4,22.4c-12.4,0-22.4-10.1-22.4-22.4c0-3.1,0.6-6.1,1.8-8.7v2.4h41.4v-2.4
					C292.3,587.3,293,590.2,293,593.3z"/>
				<path class="st408" d="M292.8,593.3c0,12.3-10,22.3-22.3,22.3s-22.3-10-22.3-22.3c0-3.1,0.6-6,1.7-8.7v2.3h41v-2.3
					C292.2,587.3,292.8,590.2,292.8,593.3z"/>
				<path class="st409" d="M292.6,593.3c0,12.2-9.9,22.1-22.1,22.1s-22.1-9.9-22.1-22.1c0-3,0.6-6,1.7-8.6v2.3h40.7v-2.3
					C292,587.4,292.6,590.3,292.6,593.3z"/>
				<path class="st410" d="M292.4,593.3c0,12.1-9.8,21.9-21.9,21.9s-21.9-9.8-21.9-21.9c0-3,0.6-5.9,1.7-8.5v2.2h40.4v-2.2
					C291.8,587.4,292.4,590.3,292.4,593.3z"/>
				<path class="st411" d="M292.2,593.3c0,12-9.7,21.7-21.7,21.7s-21.7-9.7-21.7-21.7c0-3,0.6-5.9,1.7-8.5v2.1h40v-2.1
					C291.6,587.5,292.2,590.3,292.2,593.3z"/>
				<path class="st412" d="M292.1,593.3c0,11.9-9.6,21.5-21.5,21.5s-21.5-9.6-21.5-21.5c0-3,0.6-5.8,1.7-8.4v2h39.7v-2
					C291.5,587.5,292.1,590.3,292.1,593.3z"/>
				<path class="st413" d="M291.9,593.3c0,11.8-9.6,21.4-21.4,21.4s-21.4-9.6-21.4-21.4c0-2.9,0.6-5.8,1.7-8.3v2h39.4v-2
					C291.3,587.6,291.9,590.4,291.9,593.3z"/>
				<path class="st414" d="M291.7,593.3c0,11.7-9.5,21.2-21.2,21.2s-21.2-9.5-21.2-21.2c0-2.9,0.6-5.7,1.7-8.2v1.9h39v-1.9
					C291.1,587.6,291.7,590.4,291.7,593.3z"/>
				<path class="st415" d="M291.5,593.3c0,11.6-9.4,21-21,21c-11.6,0-21-9.4-21-21c0-2.9,0.6-5.7,1.7-8.2v1.8h38.7v-1.8
					C290.9,587.7,291.5,590.4,291.5,593.3z"/>
				<path class="st416" d="M291.3,593.3c0,11.5-9.3,20.8-20.8,20.8s-20.8-9.3-20.8-20.8c0-2.9,0.6-5.6,1.6-8.1v1.8h38.4v-1.8
					C290.7,587.7,291.3,590.4,291.3,593.3z"/>
				<path class="st417" d="M291.1,593.3c0,11.4-9.2,20.6-20.6,20.6s-20.6-9.2-20.6-20.6c0-2.8,0.6-5.6,1.6-8v1.7h38v-1.7
					C290.6,587.8,291.1,590.5,291.1,593.3z"/>
				<path class="st418" d="M291,593.3c0,11.3-9.2,20.5-20.5,20.5c-11.3,0-20.5-9.2-20.5-20.5c0-2.8,0.6-5.5,1.6-8v1.6h37.7v-1.6
					C290.4,587.8,291,590.5,291,593.3z"/>
				<path class="st419" d="M290.8,593.3c0,11.2-9.1,20.3-20.3,20.3s-20.3-9.1-20.3-20.3c0-2.8,0.6-5.5,1.6-7.9v1.5h37.4v-1.5
					C290.2,587.9,290.8,590.5,290.8,593.3z"/>
				<path class="st420" d="M290.6,593.3c0,11.1-9,20.1-20.1,20.1s-20.1-9-20.1-20.1c0-2.8,0.6-5.4,1.6-7.8v1.5h37v-1.5
					C290,587.9,290.6,590.5,290.6,593.3z"/>
				<path class="st421" d="M290.4,593.3c0,11-8.9,19.9-19.9,19.9c-11,0-19.9-8.9-19.9-19.9c0-2.7,0.6-5.4,1.6-7.8v1.4h36.7v-1.4
					C289.9,588,290.4,590.6,290.4,593.3z"/>
				<path class="st422" d="M290.2,593.3c0,10.9-8.8,19.7-19.7,19.7s-19.7-8.8-19.7-19.7c0-2.7,0.6-5.3,1.6-7.7v1.3h36.4v-1.3
					C289.7,588,290.2,590.6,290.2,593.3z"/>
				<path class="st423" d="M290.1,593.3c0,10.8-8.8,19.6-19.6,19.6s-19.6-8.8-19.6-19.6c0-2.7,0.5-5.3,1.5-7.6v1.3h36v-1.3
					C289.5,588,290.1,590.6,290.1,593.3z"/>
				<path class="st424" d="M289.9,593.3c0,10.7-8.7,19.4-19.4,19.4s-19.4-8.7-19.4-19.4c0-2.7,0.5-5.2,1.5-7.5v1.2h35.7v-1.2
					C289.3,588.1,289.9,590.6,289.9,593.3z"/>
				<path class="st425" d="M289.7,593.3c0,10.6-8.6,19.2-19.2,19.2s-19.2-8.6-19.2-19.2c0-2.6,0.5-5.2,1.5-7.5v1.1h35.4v-1.1
					C289.2,588.1,289.7,590.7,289.7,593.3z"/>
				<path class="st426" d="M289.5,593.3c0,10.5-8.5,19-19,19s-19-8.5-19-19c0-2.6,0.5-5.1,1.5-7.4v1.1h35v-1.1
					C289,588.2,289.5,590.7,289.5,593.3z"/>
				<path class="st427" d="M289.3,593.3c0,10.4-8.4,18.8-18.8,18.8s-18.8-8.4-18.8-18.8c0-5.2,2.1-9.9,5.5-13.3v7h26.6v-7
					C287.2,583.4,289.3,588.1,289.3,593.3z"/>
				<path class="st428" d="M289.2,593.3c0,10.3-8.3,18.6-18.6,18.6s-18.6-8.3-18.6-18.6c0-5.1,2.1-9.8,5.5-13.2v6.8h26.4v-6.8
					C287.1,583.5,289.2,588.2,289.2,593.3z"/>
				<path class="st429" d="M289,593.3c0,10.2-8.3,18.5-18.5,18.5c-10.2,0-18.5-8.3-18.5-18.5c0-5.1,2.1-9.7,5.4-13.1v6.7h26.1v-6.7
					C286.9,583.6,289,588.2,289,593.3z"/>
				<path class="st430" d="M288.8,593.3c0,10.1-8.2,18.3-18.3,18.3s-18.3-8.2-18.3-18.3c0-5,2-9.6,5.4-12.9v6.6h25.9v-6.6
					C286.7,583.7,288.8,588.3,288.8,593.3z"/>
				<path class="st431" d="M288.6,593.3c0,10-8.1,18.1-18.1,18.1s-18.1-8.1-18.1-18.1c0-5,2-9.5,5.3-12.8v6.5h25.6v-6.5
					C286.6,583.8,288.6,588.3,288.6,593.3z"/>
				<path class="st432" d="M288.4,593.3c0,9.9-8,17.9-17.9,17.9c-9.9,0-17.9-8-17.9-17.9c0-4.9,2-9.4,5.2-12.7v6.3h25.3v-6.3
					C286.4,583.9,288.4,588.4,288.4,593.3z"/>
				<path class="st433" d="M288.3,593.3c0,9.8-7.9,17.7-17.7,17.7s-17.7-7.9-17.7-17.7c0-4.9,2-9.3,5.2-12.5v6.2h25.1v-6.2
					C286.3,584,288.3,588.4,288.3,593.3z"/>
				<path class="st434" d="M288.1,593.3c0,9.7-7.9,17.6-17.6,17.6s-17.6-7.9-17.6-17.6c0-4.8,2-9.2,5.1-12.4v6.1h24.8v-6.1
					C286.1,584.1,288.1,588.5,288.1,593.3z"/>
				<path class="st435" d="M287.9,593.3c0,9.6-7.8,17.4-17.4,17.4s-17.4-7.8-17.4-17.4c0-4.8,1.9-9.1,5.1-12.3v5.9h24.6V581
					C285.9,584.2,287.9,588.5,287.9,593.3z"/>
				<path class="st436" d="M287.7,593.3c0,9.5-7.7,17.2-17.2,17.2s-17.2-7.7-17.2-17.2c0-4.7,1.9-9,5-12.2v5.8h24.3v-5.8
					C285.8,584.3,287.7,588.6,287.7,593.3z"/>
				<path class="st437" d="M287.5,593.3c0,9.4-7.6,17-17,17s-17-7.6-17-17c0-4.7,1.9-9,5-12v5.7h24.1v-5.7
					C285.6,584.4,287.5,588.6,287.5,593.3z"/>
				<path class="st438" d="M287.3,593.3c0,9.3-7.5,16.8-16.8,16.8s-16.8-7.5-16.8-16.8c0-4.6,1.9-8.9,4.9-11.9v5.6h23.8v-5.6
					C285.5,584.5,287.3,588.7,287.3,593.3z"/>
				<path class="st439" d="M287.2,593.3c0,9.2-7.5,16.7-16.7,16.7s-16.7-7.5-16.7-16.7c0-4.6,1.9-8.8,4.9-11.8v5.4h23.6v-5.4
					C285.3,584.6,287.2,588.7,287.2,593.3z"/>
				<path class="st440" d="M287,593.3c0,9.1-7.4,16.5-16.5,16.5s-16.5-7.4-16.5-16.5c0-4.5,1.8-8.7,4.8-11.6v5.3h23.3v-5.3
					C285.1,584.7,287,588.8,287,593.3z"/>
				<path class="st441" d="M286.8,593.3c0,9-7.3,16.3-16.3,16.3s-16.3-7.3-16.3-16.3c0-4.5,1.8-8.6,4.8-11.5v5.2h23v-5.2
					C285,584.7,286.8,588.8,286.8,593.3z"/>
				<path class="st442" d="M286.6,593.3c0,8.9-7.2,16.1-16.1,16.1s-16.1-7.2-16.1-16.1c0-4.4,1.8-8.5,4.7-11.4v5h22.8v-5
					C284.8,584.8,286.6,588.9,286.6,593.3z"/>
				<path class="st443" d="M286.4,593.3c0,8.8-7.1,15.9-15.9,15.9c-8.8,0-15.9-7.1-15.9-15.9c0-4.4,1.8-8.4,4.7-11.3v4.9h22.5v-4.9
					C284.7,584.9,286.4,588.9,286.4,593.3z"/>
				<path class="st444" d="M286.3,593.3c0,8.7-7.1,15.8-15.8,15.8s-15.8-7.1-15.8-15.8c0-4.3,1.8-8.3,4.6-11.1v4.8h22.3v-4.8
					C284.5,585,286.3,589,286.3,593.3z"/>
				<path class="st445" d="M286.1,593.3c0,8.6-7,15.6-15.6,15.6s-15.6-7-15.6-15.6c0-4.3,1.7-8.2,4.6-11v4.7h22v-4.7
					C284.3,585.1,286.1,589,286.1,593.3z"/>
				<path class="st446" d="M285.9,593.3c0,8.5-6.9,15.4-15.4,15.4c-8.5,0-15.4-6.9-15.4-15.4c0-4.2,1.7-8.1,4.5-10.9v4.5h21.8v-4.5
					C284.2,585.2,285.9,589.1,285.9,593.3z"/>
				<path class="st447" d="M285.7,593.3c0,8.4-6.8,15.2-15.2,15.2s-15.2-6.8-15.2-15.2c0-4.2,1.7-8,4.5-10.8v4.4h21.5v-4.4
					C284,585.3,285.7,589.1,285.7,593.3z"/>
				<path class="st448" d="M285.5,593.3c0,8.3-6.7,15-15,15s-15-6.7-15-15c0-4.1,1.7-7.9,4.4-10.6v4.3h21.3v-4.3
					C283.9,585.4,285.5,589.2,285.5,593.3z"/>
				<path class="st449" d="M285.4,593.3c0,8.2-6.6,14.8-14.8,14.8s-14.8-6.6-14.8-14.8c0-4.1,1.7-7.8,4.3-10.5v4.2h21v-4.2
					C283.7,585.5,285.4,589.2,285.4,593.3z"/>
				<path class="st450" d="M285.2,593.3c0,8.1-6.6,14.7-14.7,14.7s-14.7-6.6-14.7-14.7c0-4,1.6-7.7,4.3-10.4v4h20.7v-4
					C283.5,585.6,285.2,589.3,285.2,593.3z"/>
				<path class="st451" d="M285,593.3c0,8-6.5,14.5-14.5,14.5s-14.5-6.5-14.5-14.5c0-4,1.6-7.6,4.2-10.2v3.9h20.5v-3.9
					C283.4,585.7,285,589.3,285,593.3z"/>
				<path class="st452" d="M284.8,593.3c0,7.9-6.4,14.3-14.3,14.3s-14.3-6.4-14.3-14.3c0-3.9,1.6-7.5,4.2-10.1v3.8h20.2v-3.8
					C283.2,585.8,284.8,589.4,284.8,593.3z"/>
				<path class="st453" d="M284.6,593.3c0,7.8-6.3,14.1-14.1,14.1s-14.1-6.3-14.1-14.1c0-3.9,1.6-7.4,4.1-10v3.6h20v-3.6
					C283.1,585.9,284.6,589.4,284.6,593.3z"/>
				<path class="st454" d="M284.5,593.3c0,7.7-6.2,13.9-13.9,13.9s-13.9-6.2-13.9-13.9c0-3.8,1.6-7.3,4.1-9.9v3.5h19.7v-3.5
					C282.9,586,284.5,589.5,284.5,593.3z"/>
				<path class="st455" d="M284.3,593.3c0,7.6-6.2,13.8-13.8,13.8s-13.8-6.2-13.8-13.8c0-3.8,1.5-7.2,4-9.7v3.4h19.5v-3.4
					C282.7,586.1,284.3,589.5,284.3,593.3z"/>
				<path class="st455" d="M284.1,593.3c0,7.5-6.1,13.6-13.6,13.6s-13.6-6.1-13.6-13.6c0-3.7,1.5-7.1,4-9.6v3.3h19.2v-3.3
					C282.6,586.2,284.1,589.6,284.1,593.3z"/>
				<path class="st456" d="M283.9,593.3c0,7.4-6,13.4-13.4,13.4c-7.4,0-13.4-6-13.4-13.4c0-3.7,1.5-7,3.9-9.5v3.1H280v-3.1
					C282.4,586.3,283.9,589.6,283.9,593.3z"/>
				<circle class="st457" cx="270.5" cy="593.3" r="13.2"/>
				<circle class="st458" cx="270.5" cy="593.3" r="13"/>
				<circle class="st459" cx="270.5" cy="593.3" r="12.9"/>
				<circle class="st460" cx="270.5" cy="593.3" r="12.7"/>
				<circle class="st460" cx="270.5" cy="593.3" r="12.5"/>
				<circle class="st461" cx="270.5" cy="593.3" r="12.3"/>
				<circle class="st462" cx="270.5" cy="593.3" r="12.1"/>
				<circle class="st463" cx="270.5" cy="593.3" r="11.9"/>
				<circle class="st464" cx="270.5" cy="593.3" r="11.8"/>
				<circle class="st465" cx="270.5" cy="593.3" r="11.6"/>
				<circle class="st466" cx="270.5" cy="593.3" r="11.4"/>
				<circle class="st467" cx="270.5" cy="593.3" r="11.2"/>
				<circle class="st468" cx="270.5" cy="593.3" r="11"/>
				<circle class="st469" cx="270.5" cy="593.3" r="10.9"/>
				<circle class="st470" cx="270.5" cy="593.3" r="10.7"/>
				<circle class="st471" cx="270.5" cy="593.3" r="10.5"/>
				<circle class="st472" cx="270.5" cy="593.3" r="10.3"/>
				<circle class="st473" cx="270.5" cy="593.3" r="10.1"/>
				<circle class="st474" cx="270.5" cy="593.3" r="10"/>
				<circle class="st475" cx="270.5" cy="593.3" r="9.8"/>
				<circle class="st476" cx="270.5" cy="593.3" r="9.6"/>
				<circle class="st477" cx="270.5" cy="593.3" r="9.4"/>
				<circle class="st478" cx="270.5" cy="593.3" r="9.2"/>
				<circle class="st479" cx="270.5" cy="593.3" r="9.1"/>
				<circle class="st480" cx="270.5" cy="593.3" r="8.9"/>
				<circle class="st481" cx="270.5" cy="593.3" r="8.7"/>
				<circle class="st482" cx="270.5" cy="593.3" r="8.5"/>
				<circle class="st483" cx="270.5" cy="593.3" r="8.3"/>
				<circle class="st484" cx="270.5" cy="593.3" r="8.1"/>
				<circle class="st485" cx="270.5" cy="593.3" r="8"/>
				<circle class="st486" cx="270.5" cy="593.3" r="7.8"/>
				<circle class="st487" cx="270.5" cy="593.3" r="7.6"/>
				<circle class="st488" cx="270.5" cy="593.3" r="7.4"/>
				<circle class="st489" cx="270.5" cy="593.3" r="7.2"/>
				<circle class="st490" cx="270.5" cy="593.3" r="7.1"/>
				<circle class="st491" cx="270.5" cy="593.3" r="6.9"/>
				<circle class="st492" cx="270.5" cy="593.3" r="6.7"/>
				<circle class="st493" cx="270.5" cy="593.3" r="6.5"/>
				<circle class="st494" cx="270.5" cy="593.3" r="6.3"/>
				<circle class="st495" cx="270.5" cy="593.3" r="6.2"/>
				<circle class="st496" cx="270.5" cy="593.3" r="6"/>
				<circle class="st497" cx="270.5" cy="593.3" r="5.8"/>
				<circle class="st498" cx="270.5" cy="593.3" r="5.6"/>
				<circle class="st499" cx="270.5" cy="593.3" r="5.4"/>
				<circle class="st500" cx="270.5" cy="593.3" r="5.3"/>
				<circle class="st501" cx="270.5" cy="593.3" r="5.1"/>
				<circle class="st502" cx="270.5" cy="593.3" r="4.9"/>
				<circle class="st503" cx="270.5" cy="593.3" r="4.7"/>
				<circle class="st504" cx="270.5" cy="593.3" r="4.5"/>
				<circle class="st505" cx="270.5" cy="593.3" r="4.3"/>
				<circle class="st506" cx="270.5" cy="593.3" r="4.2"/>
				<circle class="st507" cx="270.5" cy="593.3" r="4"/>
				<circle class="st508" cx="270.5" cy="593.3" r="3.8"/>
				<circle class="st509" cx="270.5" cy="593.3" r="3.6"/>
				<circle class="st510" cx="270.5" cy="593.3" r="3.4"/>
				<circle class="st511" cx="270.5" cy="593.3" r="3.3"/>
				<circle class="st512" cx="270.5" cy="593.3" r="3.1"/>
				<circle class="st513" cx="270.5" cy="593.3" r="2.9"/>
				<circle class="st514" cx="270.5" cy="593.3" r="2.7"/>
				<circle class="st515" cx="270.5" cy="593.3" r="2.5"/>
				<circle class="st516" cx="270.5" cy="593.3" r="2.4"/>
				<circle class="st517" cx="270.5" cy="593.3" r="2.2"/>
				<circle class="st518" cx="270.5" cy="593.3" r="2"/>
				<circle class="st519" cx="270.5" cy="593.3" r="1.8"/>
				<circle class="st519" cx="270.5" cy="593.3" r="1.6"/>
				<circle class="st520" cx="270.5" cy="593.3" r="1.4"/>
				<circle class="st521" cx="270.5" cy="593.3" r="1.3"/>
				<circle class="st521" cx="270.5" cy="593.3" r="1.1"/>
				<circle class="st522" cx="270.5" cy="593.3" r="0.9"/>
				<circle class="st523" cx="270.5" cy="593.3" r="0.7"/>
				<circle class="st524" cx="270.5" cy="593.3" r="0.5"/>
				<circle class="st525" cx="270.5" cy="593.3" r="0.4"/>
				<circle class="st526" cx="270.5" cy="593.3" r="0.2"/>
			</g>
		</g>
	</g>
</g>
<g>
</g>
<g>
</g>
<g>
</g>
<g>
</g>
<g>
</g>
<g>
</g>
</svg>
