<?xml version="1.0" encoding="utf-8"?>
<!-- Generator: Adobe Illustrator 22.1.0, SVG Export Plug-In . SVG Version: 6.00 Build 0)  -->
<svg version="1.1" id="Layer_1" xmlns="http://www.w3.org/2000/svg" xmlns:xlink="http://www.w3.org/1999/xlink" x="0px" y="0px"
	 viewBox="0 0 85.9 85.9" style="enable-background:new 0 0 85.9 85.9;" xml:space="preserve">
<style type="text/css">
	.st0{fill:#58595B;}
</style>
<path class="st0" d="M84.1,42.7L84.1,42.7c0-0.2-0.1-0.3-0.1-0.4c-0.5-1-10.2-25.7-13.3-30c-0.1-0.1-0.1-0.2-0.2-0.2
	c-5.7-4.1-14.1-5.5-20.9-4c-6.9,1.6-12.9,5.9-16,11.6c-0.8,1.2-1.5,3.3-0.8,6.1l1.7,6.7H1c-0.5,0-1,0.4-1,1c0,0.1,0,0.1,0,0.2
	l9,43.8c0,0.2,0.2,0.4,0.3,0.6v0.3l50.8,0c1.7-0.1,3.3-0.3,4.9-0.7c3.7-0.8,7.1-2.4,10.1-4.6c0.5-0.4,1-0.8,1.6-1.2l0.6-0.5l2-2
	c0.1-0.2,0.2-0.3,0.4-0.5c2.2-2.6,3.9-5.5,4.9-8.6C86.5,54.5,86.4,48.5,84.1,42.7z M35.3,20.7C35.3,20.7,35.3,20.7,35.3,20.7
	c2.9-5.3,8.4-9.3,14.7-10.7c6.2-1.4,14-0.1,19.2,3.6c1.8,1.8,5.3,12.6,8.9,20.1c-1.2-1.1-3.1-2.6-4.5-3.4c-3.6-2.1-7.7-3.1-11.7-3.1
	c-4.7,0-9.4,1.5-13.5,4.3c-0.4,0.3-0.9,0.6-1.3,1l-0.6,0.4l-2.3,2.3c-0.3,0.3-0.5,0.6-0.8,1c-2,2.7-3.3,5.6-3.9,8.7l-4.9-19.4
	C34.2,23.2,34.7,21.7,35.3,20.7z M74.1,71.4c-4.2,3.2-9,4.9-14.2,5v0l-1.7,0H10.8L2.2,34.6H35l4.5,17.8c0.2,1.2,0.5,2.3,0.9,3.5
	l0.1,0.4c0,0.1,0.1,0.3,0.2,0.4c1.4,3.5,3.5,6.5,6.4,8.7c2.8,2.2,6,3.4,9.5,3.8c3.3,0.4,6.7-0.1,9.8-1.5c3-1.3,5.4-3.3,7.2-5.8
	c2-2.7,3-5.7,3.1-8.8c0.2-5.6-1.7-10-5.8-13.5c-1.5-1.3-3.3-2.2-5.3-2.7c-3-0.8-5.9-0.7-8.7,0.4c-3.2,1.2-5.6,3.3-7.1,6.2
	c-1.6,3.1-1.8,6.4-0.6,9.7c1.5,4.2,5.4,6.9,9.6,6.9l0.2,0c3.8-0.1,7.1-2.4,8.3-5.7c0.8-2.5,0.3-6.1-2.4-8c-1.1-0.8-2.5-1.1-3.8-0.9
	h0c-0.3,0-0.9,0.2-1.1,0.3l0,0c0,0,0,0,0,0l-0.1,0l0,0c-0.3,0.1-0.7,0.3-1,0.5c-1,0.7-1.6,1.9-1.5,3c0.1,1,0.6,1.9,1.6,2.4
	c0.8,0.4,1.6,0.2,2.2-0.6c0.3-0.4,0.3-0.8,0.1-1.3L61,49.3c-0.5-1.2,1.5-2.2,2.6-1.4h0l0.3,0.2c0.4,0.3,0.7,0.6,1,1.1
	c1.5,2.3,0.9,5.4-1.3,7.3c-2.8,2.3-7.3,2.1-10-0.3c-3.4-3-4.6-9.2-0.6-13.8c2.2-2.5,5.4-4,8.9-4c3.1,0,6.1,1.2,8.5,3.3
	c1.9,1.7,3.2,3.9,3.9,6.4c1.4,5.3,0.3,10-3.3,14c-2.2,2.5-5.2,4.1-8.8,4.9c-1.1,0.2-2.2,0.3-3.3,0.3c-5.6,0-11-2.9-14.1-7.4
	c-1-1.5-1.8-3.1-2.4-4.8l-0.7-2.9c-0.4-2.6-0.3-5.3,0.4-8c1.2-4.8,4-8.7,8.4-11.5c3.5-2.3,7.5-3.5,11.7-3.4c5,0,9.8,1.7,13.6,4.9
	c2.5,2.1,4.4,4.4,5.8,7.1c0.4,1,0.8,1.6,0.9,1.9c0.8,1.9,1.3,3.9,1.5,6C84.8,58.3,81.6,65.8,74.1,71.4L74.1,71.4z"/>
</svg>
