<?xml version="1.0" encoding="utf-8"?>
<!-- Generator: Adobe Illustrator 22.0.1, SVG Export Plug-In . SVG Version: 6.00 Build 0)  -->
<svg version="1.1" id="Layer_1" xmlns="http://www.w3.org/2000/svg" xmlns:xlink="http://www.w3.org/1999/xlink" x="0px" y="0px"
	 viewBox="0 0 19.7 19.7" style="enable-background:new 0 0 19.7 19.7;" xml:space="preserve">
<style type="text/css">
	.st0{fill:#FFFFFF;}
</style>
<title>home</title>
<g>
	<path class="st0" d="M16.4,5.6V0.8h-1.8v2.3c0,0.2-0.1,0.4-0.3,0.5c-0.2,0.1-0.4,0.1-0.6-0.1L9.8,0L0,8.7h2.8
		c0.3,0,0.5,0.2,0.5,0.5v9.7c0,0.1,0,0.2-0.1,0.3v0.4c0.3-0.1,0.4-0.4,0.4-0.8V9.2c0-0.5-0.4-0.9-0.9-0.9h-2l8.9-7.9l3.7,3.3
		C13.8,4,14.1,4,14.5,3.9C14.8,3.7,15,3.4,15,3.1v-2h1.1v4.5c0,0.3,0.1,0.5,0.3,0.7l2.4,2.1h-2c-0.5,0-0.9,0.4-0.9,0.9v9.7
		c0,0.3,0.2,0.6,0.4,0.7v-0.5c0-0.1,0-0.2,0-0.2V9.2c0-0.3,0.2-0.5,0.5-0.5h2.8l-3-2.7C16.5,5.9,16.4,5.8,16.4,5.6z"/>
	<path class="st0" d="M5.6,11.7c-0.2,0-0.4,0.2-0.4,0.4c0,0.3,0.3,2.7,0.3,3.5c0,0.2,0.1,0.4,0.4,0.5h0.2C6,15.9,6,15.8,6,15.6v-1.3
		c0-0.4,0.3-0.8,0.7-0.9v-1.3c0-0.2-0.1-0.4-0.4-0.4H5.6z"/>
	<path class="st0" d="M12.8,16c0.2,0,0.4-0.2,0.4-0.4c0,0,0,0,0,0v0v-1.3c0-0.2-0.1-0.4-0.4-0.4h-6c-0.2,0-0.4,0.2-0.4,0.4v1.3
		c0,0.2,0.1,0.4,0.4,0.4H12.8z"/>
	<path class="st0" d="M14.2,15.6c0-0.8,0.3-3.3,0.3-3.5c0-0.2-0.1-0.4-0.4-0.4l-0.7,0c-0.2,0-0.4,0.2-0.4,0.4v1.3
		c0.4,0.1,0.7,0.5,0.7,0.9v1.3c0,0.1,0,0.3-0.1,0.4h0.2C14.1,16.1,14.2,15.9,14.2,15.6z"/>
	<path class="st0" d="M6.6,16.5C6.6,16.5,6.6,16.5,6.6,16.5L6.6,16.5L6.6,16.5z"/>
	<path class="st0" d="M6.2,16.5l-0.3,1.3c0,0.1,0,0.2,0.1,0.3c0.1,0,0.2-0.1,0.2-0.2l0.3-1.5c-0.1,0-0.1,0-0.2,0H6.2z"/>
	<path class="st0" d="M13.6,18.2c0.1,0,0.2-0.2,0.2-0.3c0,0,0,0,0,0c0,0,0,0,0-0.1l-0.3-1.3h-0.2c-0.1,0-0.2,0-0.2,0l0.3,1.5
		C13.4,18.1,13.5,18.2,13.6,18.2z"/>
	<path class="st0" d="M12.9,8.2H6.8c-0.1,0-0.2,0.1-0.3,0.2C6.4,8.5,6.4,8.6,6.4,8.7c0,0.4,0.1,1.3,0.1,2.3c0.4,0.1,0.7,0.5,0.7,0.9
		v1.4h5.4V12c0-0.4,0.2-0.8,0.7-0.9c0.1-1,0.1-1.9,0.1-2.3c0-0.1,0-0.2-0.1-0.3V8.4C13.1,8.3,13,8.2,12.9,8.2z M8.9,12.1
		c-0.2,0-0.4-0.2-0.4-0.4c0-0.2,0.2-0.4,0.4-0.4c0.2,0,0.4,0.2,0.4,0.4C9.3,11.9,9.2,12.1,8.9,12.1z M8.9,10.3
		c-0.2,0-0.4-0.2-0.4-0.4c0-0.2,0.2-0.4,0.4-0.4c0.2,0,0.4,0.2,0.4,0.4C9.3,10.1,9.2,10.3,8.9,10.3z M10.8,12.1
		c-0.2,0-0.4-0.2-0.4-0.4c0-0.2,0.2-0.4,0.4-0.4c0.2,0,0.4,0.2,0.4,0.4C11.2,11.9,11,12.1,10.8,12.1z M10.8,10.3
		c-0.2,0-0.4-0.2-0.4-0.4c0-0.2,0.2-0.4,0.4-0.4c0.2,0,0.4,0.2,0.4,0.4C11.2,10.1,11,10.3,10.8,10.3z"/>
</g>
</svg>
